proyectos/03_adc_tx/verilog_codes/adc_tx_tb.vcd
$date
	Wed Aug 09 20:30:45 2023
$end
$version
	Icarus Verilog
$end
$timescale
	100ps
$end
$scope module adc_tx_tb $end
$var wire 1 ! tx $end
$var wire 1 " mosi $end
$var wire 1 # eos $end
$var wire 1 $ dclk $end
$var wire 1 % cs $end
$var reg 1 & button $end
$var reg 1 ' clk $end
$var reg 1 ( miso $end
$var reg 1 ) rst $end
$scope module dut $end
$var wire 1 & button_i $end
$var wire 1 ' clk_i $end
$var wire 1 ( miso_i $end
$var wire 1 ) rst_i $end
$var wire 1 ! tx_o $end
$var wire 1 * sts $end
$var wire 1 + strc $end
$var wire 1 , st $end
$var wire 1 - sel $end
$var wire 1 " mosi_o $end
$var wire 1 . eot $end
$var wire 1 # eos_o $end
$var wire 1 / eoc $end
$var wire 12 0 dout_o [11:0] $end
$var wire 8 1 dmsb [7:0] $end
$var wire 8 2 dlsb [7:0] $end
$var wire 1 $ dclk_o $end
$var wire 8 3 data [7:0] $end
$var wire 1 % cs_o $end
$var parameter 15 4 baud $end
$var parameter 8 5 cmd_i $end
$var parameter 29 6 k_i $end
$var parameter 8 7 kmax_i $end
$var parameter 1 8 psel $end
$scope module mod_fsm_adc_tx $end
$var wire 1 ' clk_i $end
$var wire 1 ) rst_i $end
$var wire 1 * sts_i $end
$var wire 1 . eot_i $end
$var wire 1 / eoc_i $end
$var parameter 3 9 s0 $end
$var parameter 3 : s1 $end
$var parameter 3 ; s2 $end
$var parameter 3 < s3 $end
$var parameter 3 = s4 $end
$var parameter 3 > s5 $end
$var parameter 3 ? s6 $end
$var reg 1 # eos_o $end
$var reg 3 @ next_state [2:0] $end
$var reg 3 A present_state [2:0] $end
$var reg 1 - sel_o $end
$var reg 1 , st_o $end
$var reg 1 + strc_o $end
$upscope $end
$scope module mod_mux_ch $end
$var wire 8 B dlsb_i [7:0] $end
$var wire 8 C dmsb_i [7:0] $end
$var wire 1 - sel_i $end
$var wire 8 D data_o [7:0] $end
$var parameter 32 E Width $end
$upscope $end
$scope module mod_rs232_tx $end
$var wire 15 F baud_i [14:0] $end
$var wire 1 ' clk_i $end
$var wire 8 G d_i [7:0] $end
$var wire 1 H psel_i $end
$var wire 1 ) rst_i $end
$var wire 1 , st_i $end
$var wire 1 I z $end
$var wire 1 ! tx_o $end
$var wire 4 J sel [3:0] $end
$var wire 1 K p $end
$var wire 1 . eot_o $end
$var parameter 32 L Width $end
$scope module mod_freq_div $end
$var wire 15 M baud_i [14:0] $end
$var wire 1 ' clk_i $end
$var wire 1 N en_i $end
$var wire 15 O mux1 [14:0] $end
$var wire 1 ) rst_i $end
$var wire 1 I z_o $end
$var wire 15 P mux2 [14:0] $end
$var wire 1 Q comp $end
$var parameter 32 R Width $end
$var reg 15 S reg_q [14:0] $end
$upscope $end
$scope module mod_fsm_tx $end
$var wire 1 ' clk_i $end
$var wire 1 H psel_i $end
$var wire 1 ) rst_i $end
$var wire 1 , st_i $end
$var wire 1 I z_i $end
$var parameter 4 T s0 $end
$var parameter 4 U s1 $end
$var parameter 4 V s10 $end
$var parameter 4 W s11 $end
$var parameter 4 X s2 $end
$var parameter 4 Y s3 $end
$var parameter 4 Z s4 $end
$var parameter 4 [ s5 $end
$var parameter 4 \ s6 $end
$var parameter 4 ] s7 $end
$var parameter 4 ^ s8 $end
$var parameter 4 _ s9 $end
$var reg 1 . eot_o $end
$var reg 4 ` next_state [3:0] $end
$var reg 4 a present_state [3:0] $end
$var reg 4 b sel_o [3:0] $end
$upscope $end
$scope module mod_mux_tx $end
$var wire 8 c d_i [7:0] $end
$var wire 4 d sel_i [3:0] $end
$var wire 1 K p_i $end
$var reg 1 ! tx_o $end
$upscope $end
$scope module mod_parity $end
$var wire 8 e d_i [7:0] $end
$var wire 1 K p_o $end
$upscope $end
$upscope $end
$scope module mod_spi_wr $end
$var wire 1 ' clk_i $end
$var wire 8 f cmd_i [7:0] $end
$var wire 1 / eoc_o $end
$var wire 8 g kmax_i [7:0] $end
$var wire 1 ( miso_i $end
$var wire 1 ) rst_i $end
$var wire 1 + strc_i $end
$var wire 1 h slow_clk $end
$var wire 1 " mosi_o $end
$var wire 1 i eow $end
$var wire 1 j eor $end
$var wire 12 k dout_o [11:0] $end
$var wire 1 $ dclk_o $end
$var wire 1 % cs_o $end
$scope module mod_spir $end
$var wire 1 ' clk_i $end
$var wire 1 ( miso_i $end
$var wire 1 ) rst_i $end
$var wire 1 + strr_i $end
$var wire 1 h slow_clk_i $end
$var wire 2 l opc2 [1:0] $end
$var wire 2 m opc1 [1:0] $end
$var wire 1 n hab $end
$var wire 1 j eor_o $end
$var wire 12 o dout_o [11:0] $end
$var wire 16 p data [15:0] $end
$var wire 6 q cnt [5:0] $end
$scope module mod_cnt_r $end
$var wire 1 ' clk_i $end
$var wire 6 r cnt_o [5:0] $end
$var wire 1 ) rst_i $end
$var wire 2 s opc_i [1:0] $end
$var parameter 32 t Width $end
$var reg 6 u mux_d [5:0] $end
$var reg 6 v reg_q [5:0] $end
$upscope $end
$scope module mod_fsm $end
$var wire 1 ' clk_i $end
$var wire 6 w cnt_i [5:0] $end
$var wire 1 ) rst_i $end
$var wire 1 + strr_i $end
$var wire 1 h slow_clk_i $end
$var parameter 4 x s0 $end
$var parameter 4 y s1 $end
$var parameter 4 z s2 $end
$var parameter 4 { s3 $end
$var parameter 4 | s4 $end
$var parameter 4 } s5 $end
$var parameter 4 ~ s6 $end
$var parameter 4 !" s7 $end
$var reg 1 j eor_o $end
$var reg 1 n hab_o $end
$var reg 4 "" next_state [3:0] $end
$var reg 2 #" opc1_o [1:0] $end
$var reg 2 $" opc2_o [1:0] $end
$var reg 4 %" present_state [3:0] $end
$upscope $end
$scope module mod_pipo $end
$var wire 1 ' clk_i $end
$var wire 12 &" din_i [11:0] $end
$var wire 1 n hab_i $end
$var wire 1 ) rst_i $end
$var parameter 32 '" Width $end
$var reg 12 (" dout_o [11:0] $end
$upscope $end
$scope module mod_sipo $end
$var wire 1 ' clk_i $end
$var wire 1 ( din_i $end
$var wire 2 )" op_i [1:0] $end
$var wire 1 ) rst_i $end
$var wire 16 *" dout_o [15:0] $end
$var parameter 32 +" Width $end
$var reg 16 ," mux_d [15:0] $end
$var reg 16 -" reg_q [15:0] $end
$upscope $end
$upscope $end
$scope module mod_spiw $end
$var wire 1 ' clk_i $end
$var wire 8 ." cmd_i [7:0] $end
$var wire 8 /" kmax_i [7:0] $end
$var wire 1 ) rst_i $end
$var wire 1 h slow_clk_o $end
$var wire 1 + strw_i $end
$var wire 1 0" slow_clk $end
$var wire 2 1" opc2 [1:0] $end
$var wire 2 2" opc1 [1:0] $end
$var wire 1 " mosi_o $end
$var wire 1 3" hab $end
$var wire 1 4" flag $end
$var wire 1 i eow_o $end
$var wire 1 $ dclk_o $end
$var wire 1 % cs_o $end
$scope module mod_clkdiv $end
$var wire 1 ' clk_i $end
$var wire 8 5" kmax_i [7:0] $end
$var wire 1 ) rst_i $end
$var wire 1 0" slow_clk_o $end
$var wire 8 6" mux2_d [7:0] $end
$var wire 8 7" mux1 [7:0] $end
$var wire 1 3" h_i $end
$var wire 1 8" comp $end
$var parameter 32 9" Width $end
$var reg 8 :" reg_q [7:0] $end
$upscope $end
$scope module mod_cnt_w $end
$var wire 1 ' clk_i $end
$var wire 1 ) rst_i $end
$var wire 2 ;" opc_i [1:0] $end
$var wire 1 4" flag_o $end
$var parameter 32 <" Width $end
$var reg 5 =" mux_d [4:0] $end
$var reg 5 >" reg_q [4:0] $end
$upscope $end
$scope module mod_fsm_w $end
$var wire 1 ' clk_i $end
$var wire 1 4" flag_i $end
$var wire 1 ) rst_i $end
$var wire 1 0" slow_clk_i $end
$var wire 1 + strw_i $end
$var parameter 3 ?" s0 $end
$var parameter 3 @" s1 $end
$var parameter 3 A" s2 $end
$var parameter 3 B" s3 $end
$var parameter 3 C" s4 $end
$var parameter 3 D" s5 $end
$var parameter 3 E" s6 $end
$var reg 1 % cs_o $end
$var reg 1 $ dclk_o $end
$var reg 1 i eow_o $end
$var reg 1 3" hab_o $end
$var reg 3 F" next_state [2:0] $end
$var reg 2 G" opc1_o [1:0] $end
$var reg 2 H" opc2_o [1:0] $end
$var reg 3 I" present_state [2:0] $end
$upscope $end
$scope module mod_piso $end
$var wire 1 ' clk_i $end
$var wire 8 J" din_i [7:0] $end
$var wire 2 K" op_i [1:0] $end
$var wire 1 ) rst_i $end
$var wire 1 " dout_o $end
$var parameter 32 L" Width $end
$var reg 8 M" mux_d [7:0] $end
$var reg 8 N" reg_q [7:0] $end
$upscope $end
$upscope $end
$upscope $end
$scope module mod_tick $end
$var wire 1 & button_i $end
$var wire 1 ' clk_i $end
$var wire 29 O" k_i [28:0] $end
$var wire 1 ) rst_i $end
$var wire 1 P" z $end
$var wire 1 * start_o $end
$var wire 1 Q" en $end
$var parameter 32 R" Width $end
$scope module mod_fsm_tick $end
$var wire 1 & button_i $end
$var wire 1 ' clk_i $end
$var wire 1 ) rst_i $end
$var wire 1 P" z_i $end
$var parameter 2 S" s0 $end
$var parameter 2 T" s1 $end
$var parameter 2 U" s2 $end
$var reg 1 Q" en_o $end
$var reg 2 V" next_state [1:0] $end
$var reg 2 W" present_state [1:0] $end
$var reg 1 * start_o $end
$upscope $end
$scope module mod_timer $end
$var wire 1 ' clk_i $end
$var wire 1 Q" en_i $end
$var wire 29 X" k_i [28:0] $end
$var wire 1 ) rst_i $end
$var wire 1 P" z_o $end
$var wire 29 Y" mux2_d [28:0] $end
$var wire 29 Z" mux1 [28:0] $end
$var wire 1 [" comp $end
$var parameter 32 \" Width $end
$var reg 29 ]" reg_q [28:0] $end
$upscope $end
$upscope $end
$upscope $end
$upscope $end
$enddefinitions $end
$comment Show the parameter values. $end
$dumpall
b11101 \"
b10 U"
b1 T"
b0 S"
b11101 R"
b1000 L"
b110 E"
b101 D"
b100 C"
b11 B"
b10 A"
b1 @"
b0 ?"
b101 <"
b1000 9"
b10000 +"
b1100 '"
b111 !"
b110 ~
b101 }
b100 |
b11 {
b10 z
b1 y
b0 x
b110 t
b1001 _
b1000 ^
b111 ]
b110 \
b101 [
b100 Z
b11 Y
b10 X
b1011 W
b1010 V
b1 U
b0 T
b1111 R
b1111 L
b1000 E
b110 ?
b101 >
b100 =
b11 <
b10 ;
b1 :
b0 9
08
b100111 7
b11101110011010110010011111111 6
b10010111 5
b10100010101111 4
$end
#0
$dumpvars
b0 ]"
1["
b0 Z"
b11101110011010110010011111111 Y"
b11101110011010110010011111111 X"
b0 W"
b0 V"
0Q"
1P"
b11101110011010110010011111111 O"
b0 N"
b0 M"
b11 K"
b10010111 J"
b0 I"
b11 H"
b11 G"
b0 F"
b0 >"
b0 ="
b11 ;"
b0 :"
18"
b0 7"
b100111 6"
b100111 5"
04"
03"
b11 2"
b11 1"
10"
b100111 /"
b10010111 ."
b0 -"
b0 ,"
b0 *"
b0 )"
b0 ("
b0 &"
b0 %"
b0 $"
b0 #"
b0 ""
b0 w
b0 v
b0 u
b0 s
b0 r
b0 q
b0 p
b0 o
0n
b0 m
b0 l
b0 k
1j
1i
1h
b100111 g
b10010111 f
b0 e
b0 d
b0 c
b0 b
b0 a
b0 `
b0 S
1Q
b10100010101111 P
b111111111111111 O
1N
b10100010101111 M
0K
b0 J
1I
0H
b0 G
b10100010101111 F
b0 D
b0 C
b0 B
b0 A
b0 @
b0 3
b0 2
b0 1
b0 0
1/
1.
0-
0,
0+
0*
1)
1(
0'
0&
1%
0$
1#
0"
1!
$end
#50
1'
#100
0'
0)
#150
b10100010101110 P
1.
b11101110011010110010011111111 Z"
0P"
0["
b100111 7"
0h
00"
08"
0I
0Q
b11101110011010110010011111111 ]"
b100111 :"
b10100010101110 O
b10100010101111 S
1'
#200
0'
#250
b10100010101101 P
b10100010101101 O
b10100010101110 S
1'
#300
b1 V"
0'
1&
#350
b1 @
b10 V"
1*
b10100010101100 P
b1 W"
b10100010101100 O
b10100010101101 S
1'
#400
b1 @
b10 V"
1*
0'
0&
#450
b11101110011010110010011111110 Y"
b1 ""
b1 F"
b11101110011010110010011111110 Z"
b10100010101011 P
b10 @
0#
1+
1Q"
0*
b10100010101011 O
b10100010101100 S
b1 A
b10 W"
1'
#500
0'
#550
b11101110011010110010011111101 Y"
0/
b11101110011010110010011111101 Z"
b10 @
0#
0+
b10 F"
0i
0%
b1 1"
b1 ;"
b1 H"
b0 2"
b0 G"
b0 K"
b10 ""
0j
b1 l
b1 $"
b1 )"
b1 m
b1 s
b1 #"
b10100010101010 P
b11101110011010110010011111110 ]"
b10 A
b1 I"
b1 %"
b10100010101010 O
b10100010101011 S
1'
#600
0'
#650
b100110 6"
b100110 7"
b10010111 M"
b11101110011010110010011111100 Y"
b10100010101001 P
0j
b1 l
b1 $"
b1 )"
b1 m
b1 s
b1 #"
13"
0i
0%
b1 1"
b1 ;"
b1 H"
b1 2"
b1 G"
b1 K"
b11101110011010110010011111100 Z"
b10100010101001 O
b10100010101010 S
b10 %"
b10 I"
b11101110011010110010011111101 ]"
1'
#700
0'
#750
b11101110011010110010011111011 Y"
b100101 6"
b11101110011010110010011111011 Z"
1"
b100101 7"
b10100010101000 P
b11101110011010110010011111100 ]"
b10010111 N"
b100110 :"
b10100010101000 O
b10100010101001 S
1'
#800
0'
#850
b100100 6"
b11101110011010110010011111010 Y"
b10100010100111 P
b100100 7"
b11101110011010110010011111010 Z"
b10100010100111 O
b10100010101000 S
b100101 :"
b11101110011010110010011111011 ]"
1'
#900
0'
#950
b11101110011010110010011111001 Y"
b100011 6"
b11101110011010110010011111001 Z"
b100011 7"
b10100010100110 P
b11101110011010110010011111010 ]"
b100100 :"
b10100010100110 O
b10100010100111 S
1'
#1000
0'
#1050
b100010 6"
b11101110011010110010011111000 Y"
b10100010100101 P
b100010 7"
b11101110011010110010011111000 Z"
b10100010100101 O
b10100010100110 S
b100011 :"
b11101110011010110010011111001 ]"
1'
#1100
0'
#1150
b11101110011010110010011110111 Y"
b100001 6"
b11101110011010110010011110111 Z"
b100001 7"
b10100010100100 P
b11101110011010110010011111000 ]"
b100010 :"
b10100010100100 O
b10100010100101 S
1'
#1200
0'
#1250
b100000 6"
b11101110011010110010011110110 Y"
b10100010100011 P
b100000 7"
b11101110011010110010011110110 Z"
b10100010100011 O
b10100010100100 S
b100001 :"
b11101110011010110010011110111 ]"
1'
#1300
0'
#1350
b11101110011010110010011110101 Y"
b11111 6"
b11101110011010110010011110101 Z"
b11111 7"
b10100010100010 P
b11101110011010110010011110110 ]"
b100000 :"
b10100010100010 O
b10100010100011 S
1'
#1400
0'
#1450
b11110 6"
b11101110011010110010011110100 Y"
b10100010100001 P
b11110 7"
b11101110011010110010011110100 Z"
b10100010100001 O
b10100010100010 S
b11111 :"
b11101110011010110010011110101 ]"
1'
#1500
0'
#1550
b11101110011010110010011110011 Y"
b11101 6"
b11101110011010110010011110011 Z"
b11101 7"
b10100010100000 P
b11101110011010110010011110100 ]"
b11110 :"
b10100010100000 O
b10100010100001 S
1'
#1600
0'
#1650
b11100 6"
b11101110011010110010011110010 Y"
b10100010011111 P
b11100 7"
b11101110011010110010011110010 Z"
b10100010011111 O
b10100010100000 S
b11101 :"
b11101110011010110010011110011 ]"
1'
#1700
0'
#1750
b11101110011010110010011110001 Y"
b11011 6"
b11101110011010110010011110001 Z"
b11011 7"
b10100010011110 P
b11101110011010110010011110010 ]"
b11100 :"
b10100010011110 O
b10100010011111 S
1'
#1800
0'
#1850
b11010 6"
b11101110011010110010011110000 Y"
b10100010011101 P
b11010 7"
b11101110011010110010011110000 Z"
b10100010011101 O
b10100010011110 S
b11011 :"
b11101110011010110010011110001 ]"
1'
#1900
0'
#1950
b11101110011010110010011101111 Y"
b11001 6"
b11101110011010110010011101111 Z"
b11001 7"
b10100010011100 P
b11101110011010110010011110000 ]"
b11010 :"
b10100010011100 O
b10100010011101 S
1'
#2000
0'
#2050
b11000 6"
b11101110011010110010011101110 Y"
b10100010011011 P
b11000 7"
b11101110011010110010011101110 Z"
b10100010011011 O
b10100010011100 S
b11001 :"
b11101110011010110010011101111 ]"
1'
#2100
0'
#2150
b11101110011010110010011101101 Y"
b10111 6"
b11101110011010110010011101101 Z"
b10111 7"
b10100010011010 P
b11101110011010110010011101110 ]"
b11000 :"
b10100010011010 O
b10100010011011 S
1'
#2200
0'
#2250
b10110 6"
b11101110011010110010011101100 Y"
b10100010011001 P
b10110 7"
b11101110011010110010011101100 Z"
b10100010011001 O
b10100010011010 S
b10111 :"
b11101110011010110010011101101 ]"
1'
#2300
0'
#2350
b11101110011010110010011101011 Y"
b10101 6"
b11101110011010110010011101011 Z"
b10101 7"
b10100010011000 P
b11101110011010110010011101100 ]"
b10110 :"
b10100010011000 O
b10100010011001 S
1'
#2400
0'
#2450
b10100 6"
b11101110011010110010011101010 Y"
b10100010010111 P
b10100 7"
b11101110011010110010011101010 Z"
b10100010010111 O
b10100010011000 S
b10101 :"
b11101110011010110010011101011 ]"
1'
#2500
0'
#2550
b11101110011010110010011101001 Y"
b10011 6"
b11101110011010110010011101001 Z"
b10011 7"
b10100010010110 P
b11101110011010110010011101010 ]"
b10100 :"
b10100010010110 O
b10100010010111 S
1'
#2600
0'
#2650
b10010 6"
b11101110011010110010011101000 Y"
b10100010010101 P
b10010 7"
b11101110011010110010011101000 Z"
b10100010010101 O
b10100010010110 S
b10011 :"
b11101110011010110010011101001 ]"
1'
#2700
0'
#2750
b11101110011010110010011100111 Y"
b10001 6"
b11101110011010110010011100111 Z"
b10001 7"
b10100010010100 P
b11101110011010110010011101000 ]"
b10010 :"
b10100010010100 O
b10100010010101 S
1'
#2800
0'
#2850
b10000 6"
b11101110011010110010011100110 Y"
b10100010010011 P
b10000 7"
b11101110011010110010011100110 Z"
b10100010010011 O
b10100010010100 S
b10001 :"
b11101110011010110010011100111 ]"
1'
#2900
0'
#2950
b11101110011010110010011100101 Y"
b1111 6"
b11101110011010110010011100101 Z"
b1111 7"
b10100010010010 P
b11101110011010110010011100110 ]"
b10000 :"
b10100010010010 O
b10100010010011 S
1'
#3000
0'
#3050
b1110 6"
b11101110011010110010011100100 Y"
b10100010010001 P
b1110 7"
b11101110011010110010011100100 Z"
b10100010010001 O
b10100010010010 S
b1111 :"
b11101110011010110010011100101 ]"
1'
#3100
0'
#3150
b11101110011010110010011100011 Y"
b1101 6"
b11101110011010110010011100011 Z"
b1101 7"
b10100010010000 P
b11101110011010110010011100100 ]"
b1110 :"
b10100010010000 O
b10100010010001 S
1'
#3200
0'
#3250
b1100 6"
b11101110011010110010011100010 Y"
b10100010001111 P
b1100 7"
b11101110011010110010011100010 Z"
b10100010001111 O
b10100010010000 S
b1101 :"
b11101110011010110010011100011 ]"
1'
#3300
0'
#3350
b11101110011010110010011100001 Y"
b1011 6"
b11101110011010110010011100001 Z"
b1011 7"
b10100010001110 P
b11101110011010110010011100010 ]"
b1100 :"
b10100010001110 O
b10100010001111 S
1'
#3400
0'
#3450
b1010 6"
b11101110011010110010011100000 Y"
b10100010001101 P
b1010 7"
b11101110011010110010011100000 Z"
b10100010001101 O
b10100010001110 S
b1011 :"
b11101110011010110010011100001 ]"
1'
#3500
0'
#3550
b11101110011010110010011011111 Y"
b1001 6"
b11101110011010110010011011111 Z"
b1001 7"
b10100010001100 P
b11101110011010110010011100000 ]"
b1010 :"
b10100010001100 O
b10100010001101 S
1'
#3600
0'
#3650
b1000 6"
b11101110011010110010011011110 Y"
b10100010001011 P
b1000 7"
b11101110011010110010011011110 Z"
b10100010001011 O
b10100010001100 S
b1001 :"
b11101110011010110010011011111 ]"
1'
#3700
0'
#3750
b11101110011010110010011011101 Y"
b111 6"
b11101110011010110010011011101 Z"
b111 7"
b10100010001010 P
b11101110011010110010011011110 ]"
b1000 :"
b10100010001010 O
b10100010001011 S
1'
#3800
0'
#3850
b110 6"
b11101110011010110010011011100 Y"
b10100010001001 P
b110 7"
b11101110011010110010011011100 Z"
b10100010001001 O
b10100010001010 S
b111 :"
b11101110011010110010011011101 ]"
1'
#3900
0'
#3950
b11101110011010110010011011011 Y"
b101 6"
b11101110011010110010011011011 Z"
b101 7"
b10100010001000 P
b11101110011010110010011011100 ]"
b110 :"
b10100010001000 O
b10100010001001 S
1'
#4000
0'
#4050
b100 6"
b11101110011010110010011011010 Y"
b10100010000111 P
b100 7"
b11101110011010110010011011010 Z"
b10100010000111 O
b10100010001000 S
b101 :"
b11101110011010110010011011011 ]"
1'
#4100
0'
#4150
b11101110011010110010011011001 Y"
b11 6"
b11101110011010110010011011001 Z"
b11 7"
b10100010000110 P
b11101110011010110010011011010 ]"
b100 :"
b10100010000110 O
b10100010000111 S
1'
#4200
0'
#4250
b10 6"
b11101110011010110010011011000 Y"
b10100010000101 P
b10 7"
b11101110011010110010011011000 Z"
b10100010000101 O
b10100010000110 S
b11 :"
b11101110011010110010011011001 ]"
1'
#4300
0'
#4350
b11101110011010110010011010111 Y"
b1 6"
b11101110011010110010011010111 Z"
b1 7"
b10100010000100 P
b11101110011010110010011011000 ]"
b10 :"
b10100010000100 O
b10100010000101 S
1'
#4400
0'
#4450
b0 6"
b11101110011010110010011010110 Y"
b10100010000011 P
b0 7"
b11101110011010110010011010110 Z"
b10100010000011 O
b10100010000100 S
b1 :"
b11101110011010110010011010111 ]"
1'
#4500
0'
#4550
b11101110011010110010011010101 Y"
b100111 6"
b11 F"
0i
13"
0%
b1 1"
b1 ;"
b1 H"
b1 2"
b1 G"
b1 K"
b11 ""
0j
b1 l
b1 $"
b1 )"
b1 m
b1 s
b1 #"
b11101110011010110010011010101 Z"
b11111111 7"
1h
10"
18"
b10100010000010 P
b11101110011010110010011010110 ]"
b0 :"
b10100010000010 O
b10100010000011 S
1'
#4600
0'
#4650
b1 u
b100110 6"
b11101110011010110010011010100 Y"
b10100010000001 P
b100 ""
0j
b1 l
b1 $"
b1 )"
b10 m
b10 s
b10 #"
1$
0i
13"
0%
b1 1"
b1 ;"
b1 H"
b0 2"
b0 G"
b0 K"
b100110 7"
0h
00"
08"
b11101110011010110010011010100 Z"
b10100010000001 O
b10100010000010 S
b11 %"
b11 I"
b100111 :"
b11101110011010110010011010101 ]"
1'
#4700
0'
#4750
b11101110011010110010011010011 Y"
b100101 6"
b11101110011010110010011010011 Z"
b100101 7"
0j
b1 l
b1 $"
b1 )"
b1 m
b1 s
b1 #"
b10100010000000 P
b11101110011010110010011010100 ]"
b100110 :"
b1 q
b1 r
b1 w
b1 v
b100 %"
b10100010000000 O
b10100010000001 S
1'
#4800
0'
#4850
b100100 6"
b11101110011010110010011010010 Y"
b10100001111111 P
b100100 7"
b11101110011010110010011010010 Z"
b10100001111111 O
b10100010000000 S
b100101 :"
b11101110011010110010011010011 ]"
1'
#4900
0'
#4950
b11101110011010110010011010001 Y"
b100011 6"
b11101110011010110010011010001 Z"
b100011 7"
b10100001111110 P
b11101110011010110010011010010 ]"
b100100 :"
b10100001111110 O
b10100001111111 S
1'
#5000
0'
#5050
b100010 6"
b11101110011010110010011010000 Y"
b10100001111101 P
b100010 7"
b11101110011010110010011010000 Z"
b10100001111101 O
b10100001111110 S
b100011 :"
b11101110011010110010011010001 ]"
1'
#5100
0'
#5150
b11101110011010110010011001111 Y"
b100001 6"
b11101110011010110010011001111 Z"
b100001 7"
b10100001111100 P
b11101110011010110010011010000 ]"
b100010 :"
b10100001111100 O
b10100001111101 S
1'
#5200
0'
#5250
b100000 6"
b11101110011010110010011001110 Y"
b10100001111011 P
b100000 7"
b11101110011010110010011001110 Z"
b10100001111011 O
b10100001111100 S
b100001 :"
b11101110011010110010011001111 ]"
1'
#5300
0'
#5350
b11101110011010110010011001101 Y"
b11111 6"
b11101110011010110010011001101 Z"
b11111 7"
b10100001111010 P
b11101110011010110010011001110 ]"
b100000 :"
b10100001111010 O
b10100001111011 S
1'
#5400
0'
#5450
b11110 6"
b11101110011010110010011001100 Y"
b10100001111001 P
b11110 7"
b11101110011010110010011001100 Z"
b10100001111001 O
b10100001111010 S
b11111 :"
b11101110011010110010011001101 ]"
1'
#5500
0'
#5550
b11101110011010110010011001011 Y"
b11101 6"
b11101110011010110010011001011 Z"
b11101 7"
b10100001111000 P
b11101110011010110010011001100 ]"
b11110 :"
b10100001111000 O
b10100001111001 S
1'
#5600
0'
#5650
b11100 6"
b11101110011010110010011001010 Y"
b10100001110111 P
b11100 7"
b11101110011010110010011001010 Z"
b10100001110111 O
b10100001111000 S
b11101 :"
b11101110011010110010011001011 ]"
1'
#5700
0'
#5750
b11101110011010110010011001001 Y"
b11011 6"
b11101110011010110010011001001 Z"
b11011 7"
b10100001110110 P
b11101110011010110010011001010 ]"
b11100 :"
b10100001110110 O
b10100001110111 S
1'
#5800
0'
#5850
b11010 6"
b11101110011010110010011001000 Y"
b10100001110101 P
b11010 7"
b11101110011010110010011001000 Z"
b10100001110101 O
b10100001110110 S
b11011 :"
b11101110011010110010011001001 ]"
1'
#5900
0'
#5950
b11101110011010110010011000111 Y"
b11001 6"
b11101110011010110010011000111 Z"
b11001 7"
b10100001110100 P
b11101110011010110010011001000 ]"
b11010 :"
b10100001110100 O
b10100001110101 S
1'
#6000
0'
#6050
b11000 6"
b11101110011010110010011000110 Y"
b10100001110011 P
b11000 7"
b11101110011010110010011000110 Z"
b10100001110011 O
b10100001110100 S
b11001 :"
b11101110011010110010011000111 ]"
1'
#6100
0'
#6150
b11101110011010110010011000101 Y"
b10111 6"
b11101110011010110010011000101 Z"
b10111 7"
b10100001110010 P
b11101110011010110010011000110 ]"
b11000 :"
b10100001110010 O
b10100001110011 S
1'
#6200
0'
#6250
b10110 6"
b11101110011010110010011000100 Y"
b10100001110001 P
b10110 7"
b11101110011010110010011000100 Z"
b10100001110001 O
b10100001110010 S
b10111 :"
b11101110011010110010011000101 ]"
1'
#6300
0'
#6350
b11101110011010110010011000011 Y"
b10101 6"
b11101110011010110010011000011 Z"
b10101 7"
b10100001110000 P
b11101110011010110010011000100 ]"
b10110 :"
b10100001110000 O
b10100001110001 S
1'
#6400
0'
#6450
b10100 6"
b11101110011010110010011000010 Y"
b10100001101111 P
b10100 7"
b11101110011010110010011000010 Z"
b10100001101111 O
b10100001110000 S
b10101 :"
b11101110011010110010011000011 ]"
1'
#6500
0'
#6550
b11101110011010110010011000001 Y"
b10011 6"
b11101110011010110010011000001 Z"
b10011 7"
b10100001101110 P
b11101110011010110010011000010 ]"
b10100 :"
b10100001101110 O
b10100001101111 S
1'
#6600
0'
#6650
b10010 6"
b11101110011010110010011000000 Y"
b10100001101101 P
b10010 7"
b11101110011010110010011000000 Z"
b10100001101101 O
b10100001101110 S
b10011 :"
b11101110011010110010011000001 ]"
1'
#6700
0'
#6750
b11101110011010110010010111111 Y"
b10001 6"
b11101110011010110010010111111 Z"
b10001 7"
b10100001101100 P
b11101110011010110010011000000 ]"
b10010 :"
b10100001101100 O
b10100001101101 S
1'
#6800
0'
#6850
b10000 6"
b11101110011010110010010111110 Y"
b10100001101011 P
b10000 7"
b11101110011010110010010111110 Z"
b10100001101011 O
b10100001101100 S
b10001 :"
b11101110011010110010010111111 ]"
1'
#6900
0'
#6950
b11101110011010110010010111101 Y"
b1111 6"
b11101110011010110010010111101 Z"
b1111 7"
b10100001101010 P
b11101110011010110010010111110 ]"
b10000 :"
b10100001101010 O
b10100001101011 S
1'
#7000
0'
#7050
b1110 6"
b11101110011010110010010111100 Y"
b10100001101001 P
b1110 7"
b11101110011010110010010111100 Z"
b10100001101001 O
b10100001101010 S
b1111 :"
b11101110011010110010010111101 ]"
1'
#7100
0'
#7150
b11101110011010110010010111011 Y"
b1101 6"
b11101110011010110010010111011 Z"
b1101 7"
b10100001101000 P
b11101110011010110010010111100 ]"
b1110 :"
b10100001101000 O
b10100001101001 S
1'
#7200
0'
#7250
b1100 6"
b11101110011010110010010111010 Y"
b10100001100111 P
b1100 7"
b11101110011010110010010111010 Z"
b10100001100111 O
b10100001101000 S
b1101 :"
b11101110011010110010010111011 ]"
1'
#7300
0'
#7350
b11101110011010110010010111001 Y"
b1011 6"
b11101110011010110010010111001 Z"
b1011 7"
b10100001100110 P
b11101110011010110010010111010 ]"
b1100 :"
b10100001100110 O
b10100001100111 S
1'
#7400
0'
#7450
b1010 6"
b11101110011010110010010111000 Y"
b10100001100101 P
b1010 7"
b11101110011010110010010111000 Z"
b10100001100101 O
b10100001100110 S
b1011 :"
b11101110011010110010010111001 ]"
1'
#7500
0'
#7550
b11101110011010110010010110111 Y"
b1001 6"
b11101110011010110010010110111 Z"
b1001 7"
b10100001100100 P
b11101110011010110010010111000 ]"
b1010 :"
b10100001100100 O
b10100001100101 S
1'
#7600
0'
#7650
b1000 6"
b11101110011010110010010110110 Y"
b10100001100011 P
b1000 7"
b11101110011010110010010110110 Z"
b10100001100011 O
b10100001100100 S
b1001 :"
b11101110011010110010010110111 ]"
1'
#7700
0'
#7750
b11101110011010110010010110101 Y"
b111 6"
b11101110011010110010010110101 Z"
b111 7"
b10100001100010 P
b11101110011010110010010110110 ]"
b1000 :"
b10100001100010 O
b10100001100011 S
1'
#7800
0'
#7850
b110 6"
b11101110011010110010010110100 Y"
b10100001100001 P
b110 7"
b11101110011010110010010110100 Z"
b10100001100001 O
b10100001100010 S
b111 :"
b11101110011010110010010110101 ]"
1'
#7900
0'
#7950
b11101110011010110010010110011 Y"
b101 6"
b11101110011010110010010110011 Z"
b101 7"
b10100001100000 P
b11101110011010110010010110100 ]"
b110 :"
b10100001100000 O
b10100001100001 S
1'
#8000
0'
#8050
b100 6"
b11101110011010110010010110010 Y"
b10100001011111 P
b100 7"
b11101110011010110010010110010 Z"
b10100001011111 O
b10100001100000 S
b101 :"
b11101110011010110010010110011 ]"
1'
#8100
0'
