proyectos/04_spi_two_ch/verilog_codes/spi_two_ch_tb.vcd
$date
	Thu Aug 10 13:09:43 2023
$end
$version
	Icarus Verilog
$end
$timescale
	100ps
$end
$scope module spi_two_ch_tb $end
$var wire 1 ! mosi $end
$var wire 1 " eos $end
$var wire 12 # doutch1 [11:0] $end
$var wire 12 $ doutch0 [11:0] $end
$var wire 1 % dclk $end
$var wire 1 & cs $end
$var reg 1 ' button $end
$var reg 1 ( clk $end
$var reg 1 ) miso $end
$var reg 1 * rst $end
$scope module dut $end
$var wire 1 ' button_i $end
$var wire 1 ( clk_i $end
$var wire 1 ) miso_i $end
$var wire 1 * rst_i $end
$var wire 1 + strc $end
$var wire 1 , stm $end
$var wire 1 - sel $end
$var wire 1 ! mosi_o $end
$var wire 1 . h2 $end
$var wire 1 / h1 $end
$var wire 1 " eos_o $end
$var wire 1 0 eoc $end
$var wire 12 1 doutch1_o [11:0] $end
$var wire 12 2 doutch0_o [11:0] $end
$var wire 1 % dclk_o $end
$var wire 12 3 data [11:0] $end
$var wire 1 & cs_o $end
$var wire 8 4 cmd [7:0] $end
$var parameter 8 5 ch0_i $end
$var parameter 8 6 ch1_i $end
$var parameter 29 7 k_i $end
$var parameter 8 8 kmax_i $end
$scope module mod_fsm_master $end
$var wire 1 ( clk_i $end
$var wire 1 * rst_i $end
$var wire 1 , stm_i $end
$var wire 1 0 eoc_i $end
$var parameter 3 9 s0 $end
$var parameter 3 : s1 $end
$var parameter 3 ; s2 $end
$var parameter 3 < s3 $end
$var parameter 3 = s4 $end
$var parameter 3 > s5 $end
$var parameter 3 ? s6 $end
$var reg 1 " eos_o $end
$var reg 1 / h1_o $end
$var reg 1 . h2_o $end
$var reg 3 @ next_state [2:0] $end
$var reg 3 A present_state [2:0] $end
$var reg 1 - sel_o $end
$var reg 1 + st_o $end
$upscope $end
$scope module mod_mux_ch $end
$var wire 8 B ch0_i [7:0] $end
$var wire 8 C ch1_i [7:0] $end
$var wire 1 - sel_i $end
$var wire 8 D cmd_o [7:0] $end
$var parameter 32 E Width $end
$upscope $end
$scope module mod_pipo1 $end
$var wire 1 ( clk_i $end
$var wire 1 / hab_i $end
$var wire 1 * rst_i $end
$var wire 12 F din_i [11:0] $end
$var parameter 32 G Width $end
$var reg 12 H dout_o [11:0] $end
$upscope $end
$scope module mod_pipo2 $end
$var wire 1 ( clk_i $end
$var wire 1 . hab_i $end
$var wire 1 * rst_i $end
$var wire 12 I din_i [11:0] $end
$var parameter 32 J Width $end
$var reg 12 K dout_o [11:0] $end
$upscope $end
$scope module mod_spi $end
$var wire 1 ( clk_i $end
$var wire 8 L cmd_i [7:0] $end
$var wire 1 0 eoc_o $end
$var wire 8 M kmax_i [7:0] $end
$var wire 1 ) miso_i $end
$var wire 1 * rst_i $end
$var wire 1 + strc_i $end
$var wire 1 N slow_clk $end
$var wire 1 ! mosi_o $end
$var wire 1 O eow $end
$var wire 1 P eor $end
$var wire 12 Q dout_o [11:0] $end
$var wire 1 % dclk_o $end
$var wire 1 & cs_o $end
$scope module mod_spir $end
$var wire 1 ( clk_i $end
$var wire 1 ) miso_i $end
$var wire 1 * rst_i $end
$var wire 1 + strr_i $end
$var wire 1 N slow_clk_i $end
$var wire 2 R opc2 [1:0] $end
$var wire 2 S opc1 [1:0] $end
$var wire 1 T hab $end
$var wire 1 P eor_o $end
$var wire 12 U dout_o [11:0] $end
$var wire 16 V data [15:0] $end
$var wire 6 W cnt [5:0] $end
$scope module mod_cnt_r $end
$var wire 1 ( clk_i $end
$var wire 6 X cnt_o [5:0] $end
$var wire 1 * rst_i $end
$var wire 2 Y opc_i [1:0] $end
$var parameter 32 Z Width $end
$var reg 6 [ mux_d [5:0] $end
$var reg 6 \ reg_q [5:0] $end
$upscope $end
$scope module mod_fsm $end
$var wire 1 ( clk_i $end
$var wire 6 ] cnt_i [5:0] $end
$var wire 1 * rst_i $end
$var wire 1 + strr_i $end
$var wire 1 N slow_clk_i $end
$var parameter 4 ^ s0 $end
$var parameter 4 _ s1 $end
$var parameter 4 ` s2 $end
$var parameter 4 a s3 $end
$var parameter 4 b s4 $end
$var parameter 4 c s5 $end
$var parameter 4 d s6 $end
$var parameter 4 e s7 $end
$var reg 1 P eor_o $end
$var reg 1 T hab_o $end
$var reg 4 f next_state [3:0] $end
$var reg 2 g opc1_o [1:0] $end
$var reg 2 h opc2_o [1:0] $end
$var reg 4 i present_state [3:0] $end
$upscope $end
$scope module mod_pipo $end
$var wire 1 ( clk_i $end
$var wire 12 j din_i [11:0] $end
$var wire 1 T hab_i $end
$var wire 1 * rst_i $end
$var parameter 32 k Width $end
$var reg 12 l dout_o [11:0] $end
$upscope $end
$scope module mod_sipo $end
$var wire 1 ( clk_i $end
$var wire 1 ) din_i $end
$var wire 2 m op_i [1:0] $end
$var wire 1 * rst_i $end
$var wire 16 n dout_o [15:0] $end
$var parameter 32 o Width $end
$var reg 16 p mux_d [15:0] $end
$var reg 16 q reg_q [15:0] $end
$upscope $end
$upscope $end
$scope module mod_spiw $end
$var wire 1 ( clk_i $end
$var wire 8 r cmd_i [7:0] $end
$var wire 8 s kmax_i [7:0] $end
$var wire 1 * rst_i $end
$var wire 1 N slow_clk_o $end
$var wire 1 + strw_i $end
$var wire 1 t slow_clk $end
$var wire 2 u opc2 [1:0] $end
$var wire 2 v opc1 [1:0] $end
$var wire 1 ! mosi_o $end
$var wire 1 w hab $end
$var wire 1 x flag $end
$var wire 1 O eow_o $end
$var wire 1 % dclk_o $end
$var wire 1 & cs_o $end
$scope module mod_clkdiv $end
$var wire 1 ( clk_i $end
$var wire 8 y kmax_i [7:0] $end
$var wire 1 * rst_i $end
$var wire 1 t slow_clk_o $end
$var wire 8 z mux2_d [7:0] $end
$var wire 8 { mux1 [7:0] $end
$var wire 1 w h_i $end
$var wire 1 | comp $end
$var parameter 32 } Width $end
$var reg 8 ~ reg_q [7:0] $end
$upscope $end
$scope module mod_cnt_w $end
$var wire 1 ( clk_i $end
$var wire 1 * rst_i $end
$var wire 2 !" opc_i [1:0] $end
$var wire 1 x flag_o $end
$var parameter 32 "" Width $end
$var reg 5 #" mux_d [4:0] $end
$var reg 5 $" reg_q [4:0] $end
$upscope $end
$scope module mod_fsm_w $end
$var wire 1 ( clk_i $end
$var wire 1 x flag_i $end
$var wire 1 * rst_i $end
$var wire 1 t slow_clk_i $end
$var wire 1 + strw_i $end
$var parameter 3 %" s0 $end
$var parameter 3 &" s1 $end
$var parameter 3 '" s2 $end
$var parameter 3 (" s3 $end
$var parameter 3 )" s4 $end
$var parameter 3 *" s5 $end
$var parameter 3 +" s6 $end
$var reg 1 & cs_o $end
$var reg 1 % dclk_o $end
$var reg 1 O eow_o $end
$var reg 1 w hab_o $end
$var reg 3 ," next_state [2:0] $end
$var reg 2 -" opc1_o [1:0] $end
$var reg 2 ." opc2_o [1:0] $end
$var reg 3 /" present_state [2:0] $end
$upscope $end
$scope module mod_piso $end
$var wire 1 ( clk_i $end
$var wire 8 0" din_i [7:0] $end
$var wire 2 1" op_i [1:0] $end
$var wire 1 * rst_i $end
$var wire 1 ! dout_o $end
$var parameter 32 2" Width $end
$var reg 8 3" mux_d [7:0] $end
$var reg 8 4" reg_q [7:0] $end
$upscope $end
$upscope $end
$upscope $end
$scope module mod_tick $end
$var wire 1 ' button_i $end
$var wire 1 ( clk_i $end
$var wire 29 5" k_i [28:0] $end
$var wire 1 * rst_i $end
$var wire 1 6" z $end
$var wire 1 , start_o $end
$var wire 1 7" en $end
$var parameter 32 8" Width $end
$scope module mod_fsm_tick $end
$var wire 1 ' button_i $end
$var wire 1 ( clk_i $end
$var wire 1 * rst_i $end
$var wire 1 6" z_i $end
$var parameter 2 9" s0 $end
$var parameter 2 :" s1 $end
$var parameter 2 ;" s2 $end
$var reg 1 7" en_o $end
$var reg 2 <" next_state [1:0] $end
$var reg 2 =" present_state [1:0] $end
$var reg 1 , start_o $end
$upscope $end
$scope module mod_timer $end
$var wire 1 ( clk_i $end
$var wire 1 7" en_i $end
$var wire 29 >" k_i [28:0] $end
$var wire 1 * rst_i $end
$var wire 1 6" z_o $end
$var wire 29 ?" mux2_d [28:0] $end
$var wire 29 @" mux1 [28:0] $end
$var wire 1 A" comp $end
$var parameter 32 B" Width $end
$var reg 29 C" reg_q [28:0] $end
$upscope $end
$upscope $end
$upscope $end
$upscope $end
$enddefinitions $end
$comment Show the parameter values. $end
$dumpall
b11101 B"
b10 ;"
b1 :"
b0 9"
b11101 8"
b1000 2"
b110 +"
b101 *"
b100 )"
b11 ("
b10 '"
b1 &"
b0 %"
b101 ""
b1000 }
b10000 o
b1100 k
b111 e
b110 d
b101 c
b100 b
b11 a
b10 `
b1 _
b0 ^
b110 Z
b1100 J
b1100 G
b1000 E
b110 ?
b101 >
b100 =
b11 <
b10 ;
b1 :
b0 9
b100111 8
b11101110011010110010011111111 7
b11010111 6
b10010111 5
$end
#0
$dumpvars
b0 C"
1A"
b0 @"
b11101110011010110010011111111 ?"
b11101110011010110010011111111 >"
b0 ="
b0 <"
07"
16"
b11101110011010110010011111111 5"
b0 4"
b0 3"
b11 1"
b10010111 0"
b0 /"
b11 ."
b11 -"
b0 ,"
b0 $"
b0 #"
b11 !"
b0 ~
1|
b0 {
b100111 z
b100111 y
0x
0w
b11 v
b11 u
1t
b100111 s
b10010111 r
b0 q
b0 p
b0 n
b0 m
b0 l
b0 j
b0 i
b0 h
b0 g
b0 f
b0 ]
b0 \
b0 [
b0 Y
b0 X
b0 W
b0 V
b0 U
0T
b0 S
b0 R
b0 Q
1P
1O
1N
b100111 M
b10010111 L
b0 K
b0 I
b0 H
b0 F
b10010111 D
b11010111 C
b10010111 B
b0 A
b0 @
b10010111 4
b0 3
b0 2
b0 1
10
0/
0.
0-
0,
0+
1*
1)
0(
0'
1&
0%
b0 $
b0 #
1"
0!
$end
#50
1(
#100
0(
0*
#150
b11101110011010110010011111111 @"
06"
0A"
b100111 {
0N
0t
0|
b11101110011010110010011111111 C"
b100111 ~
1(
#200
0(
#250
1(
#300
b1 <"
0(
1'
#350
b1 @
b10 <"
1,
b1 ="
1(
#400
b1 @
b10 <"
1,
0(
0'
#450
b11101110011010110010011111110 ?"
b1 f
b1 ,"
b11101110011010110010011111110 @"
b10 @
0"
1+
17"
0,
b1 A
b10 ="
1(
#500
0(
#550
b11101110011010110010011111101 ?"
00
b11101110011010110010011111101 @"
b10 @
0"
0+
b10 ,"
0O
0&
b1 u
b1 !"
b1 ."
b0 v
b0 -"
b0 1"
b10 f
0P
b1 R
b1 h
b1 m
b1 S
b1 Y
b1 g
b11101110011010110010011111110 C"
b10 A
b1 /"
b1 i
1(
#600
0(
#650
b100110 z
b100110 {
b10010111 3"
b11101110011010110010011111100 ?"
0P
b1 R
b1 h
b1 m
b1 S
b1 Y
b1 g
1w
0O
0&
b1 u
b1 !"
b1 ."
b1 v
b1 -"
b1 1"
b11101110011010110010011111100 @"
b10 i
b10 /"
b11101110011010110010011111101 C"
1(
#700
0(
#750
b11101110011010110010011111011 ?"
b100101 z
b11101110011010110010011111011 @"
1!
b100101 {
b11101110011010110010011111100 C"
b10010111 4"
b100110 ~
1(
#800
0(
#850
b100100 z
b11101110011010110010011111010 ?"
b100100 {
b11101110011010110010011111010 @"
b100101 ~
b11101110011010110010011111011 C"
1(
#900
0(
#950
b11101110011010110010011111001 ?"
b100011 z
b11101110011010110010011111001 @"
b100011 {
b11101110011010110010011111010 C"
b100100 ~
1(
#1000
0(
#1050
b100010 z
b11101110011010110010011111000 ?"
b100010 {
b11101110011010110010011111000 @"
b100011 ~
b11101110011010110010011111001 C"
1(
#1100
0(
#1150
b11101110011010110010011110111 ?"
b100001 z
b11101110011010110010011110111 @"
b100001 {
b11101110011010110010011111000 C"
b100010 ~
1(
#1200
0(
#1250
b100000 z
b11101110011010110010011110110 ?"
b100000 {
b11101110011010110010011110110 @"
b100001 ~
b11101110011010110010011110111 C"
1(
#1300
0(
#1350
b11101110011010110010011110101 ?"
b11111 z
b11101110011010110010011110101 @"
b11111 {
b11101110011010110010011110110 C"
b100000 ~
1(
#1400
0(
#1450
b11110 z
b11101110011010110010011110100 ?"
b11110 {
b11101110011010110010011110100 @"
b11111 ~
b11101110011010110010011110101 C"
1(
#1500
0(
#1550
b11101110011010110010011110011 ?"
b11101 z
b11101110011010110010011110011 @"
b11101 {
b11101110011010110010011110100 C"
b11110 ~
1(
#1600
0(
#1650
b11100 z
b11101110011010110010011110010 ?"
b11100 {
b11101110011010110010011110010 @"
b11101 ~
b11101110011010110010011110011 C"
1(
#1700
0(
#1750
b11101110011010110010011110001 ?"
b11011 z
b11101110011010110010011110001 @"
b11011 {
b11101110011010110010011110010 C"
b11100 ~
1(
#1800
0(
#1850
b11010 z
b11101110011010110010011110000 ?"
b11010 {
b11101110011010110010011110000 @"
b11011 ~
b11101110011010110010011110001 C"
1(
#1900
0(
#1950
b11101110011010110010011101111 ?"
b11001 z
b11101110011010110010011101111 @"
b11001 {
b11101110011010110010011110000 C"
b11010 ~
1(
#2000
0(
#2050
b11000 z
b11101110011010110010011101110 ?"
b11000 {
b11101110011010110010011101110 @"
b11001 ~
b11101110011010110010011101111 C"
1(
#2100
0(
#2150
b11101110011010110010011101101 ?"
b10111 z
b11101110011010110010011101101 @"
b10111 {
b11101110011010110010011101110 C"
b11000 ~
1(
#2200
0(
#2250
b10110 z
b11101110011010110010011101100 ?"
b10110 {
b11101110011010110010011101100 @"
b10111 ~
b11101110011010110010011101101 C"
1(
#2300
0(
#2350
b11101110011010110010011101011 ?"
b10101 z
b11101110011010110010011101011 @"
b10101 {
b11101110011010110010011101100 C"
b10110 ~
1(
#2400
0(
#2450
b10100 z
b11101110011010110010011101010 ?"
b10100 {
b11101110011010110010011101010 @"
b10101 ~
b11101110011010110010011101011 C"
1(
#2500
0(
#2550
b11101110011010110010011101001 ?"
b10011 z
b11101110011010110010011101001 @"
b10011 {
b11101110011010110010011101010 C"
b10100 ~
1(
#2600
0(
#2650
b10010 z
b11101110011010110010011101000 ?"
b10010 {
b11101110011010110010011101000 @"
b10011 ~
b11101110011010110010011101001 C"
1(
#2700
0(
#2750
b11101110011010110010011100111 ?"
b10001 z
b11101110011010110010011100111 @"
b10001 {
b11101110011010110010011101000 C"
b10010 ~
1(
#2800
0(
#2850
b10000 z
b11101110011010110010011100110 ?"
b10000 {
b11101110011010110010011100110 @"
b10001 ~
b11101110011010110010011100111 C"
1(
#2900
0(
#2950
b11101110011010110010011100101 ?"
b1111 z
b11101110011010110010011100101 @"
b1111 {
b11101110011010110010011100110 C"
b10000 ~
1(
#3000
0(
#3050
b1110 z
b11101110011010110010011100100 ?"
b1110 {
b11101110011010110010011100100 @"
b1111 ~
b11101110011010110010011100101 C"
1(
#3100
0(
#3150
b11101110011010110010011100011 ?"
b1101 z
b11101110011010110010011100011 @"
b1101 {
b11101110011010110010011100100 C"
b1110 ~
1(
#3200
0(
#3250
b1100 z
b11101110011010110010011100010 ?"
b1100 {
b11101110011010110010011100010 @"
b1101 ~
b11101110011010110010011100011 C"
1(
#3300
0(
#3350
b11101110011010110010011100001 ?"
b1011 z
b11101110011010110010011100001 @"
b1011 {
b11101110011010110010011100010 C"
b1100 ~
1(
#3400
0(
#3450
b1010 z
b11101110011010110010011100000 ?"
b1010 {
b11101110011010110010011100000 @"
b1011 ~
b11101110011010110010011100001 C"
1(
#3500
0(
#3550
b11101110011010110010011011111 ?"
b1001 z
b11101110011010110010011011111 @"
b1001 {
b11101110011010110010011100000 C"
b1010 ~
1(
#3600
0(
#3650
b1000 z
b11101110011010110010011011110 ?"
b1000 {
b11101110011010110010011011110 @"
b1001 ~
b11101110011010110010011011111 C"
1(
#3700
0(
#3750
b11101110011010110010011011101 ?"
b111 z
b11101110011010110010011011101 @"
b111 {
b11101110011010110010011011110 C"
b1000 ~
1(
#3800
0(
#3850
b110 z
b11101110011010110010011011100 ?"
b110 {
b11101110011010110010011011100 @"
b111 ~
b11101110011010110010011011101 C"
1(
#3900
0(
#3950
b11101110011010110010011011011 ?"
b101 z
b11101110011010110010011011011 @"
b101 {
b11101110011010110010011011100 C"
b110 ~
1(
#4000
0(
#4050
b100 z
b11101110011010110010011011010 ?"
b100 {
b11101110011010110010011011010 @"
b101 ~
b11101110011010110010011011011 C"
1(
#4100
0(
#4150
b11101110011010110010011011001 ?"
b11 z
b11101110011010110010011011001 @"
b11 {
b11101110011010110010011011010 C"
b100 ~
1(
#4200
0(
#4250
b10 z
b11101110011010110010011011000 ?"
b10 {
b11101110011010110010011011000 @"
b11 ~
b11101110011010110010011011001 C"
1(
#4300
0(
#4350
b11101110011010110010011010111 ?"
b1 z
b11101110011010110010011010111 @"
b1 {
b11101110011010110010011011000 C"
b10 ~
1(
#4400
0(
#4450
b0 z
b11101110011010110010011010110 ?"
b0 {
b11101110011010110010011010110 @"
b1 ~
b11101110011010110010011010111 C"
1(
#4500
0(
#4550
b11101110011010110010011010101 ?"
b100111 z
b11 ,"
0O
1w
0&
b1 u
b1 !"
b1 ."
b1 v
b1 -"
b1 1"
b11 f
0P
b1 R
b1 h
b1 m
b1 S
b1 Y
b1 g
b11101110011010110010011010101 @"
b11111111 {
1N
1t
1|
b11101110011010110010011010110 C"
b0 ~
1(
#4600
0(
#4650
b1 [
b100110 z
b11101110011010110010011010100 ?"
b100 f
0P
b1 R
b1 h
b1 m
b10 S
b10 Y
b10 g
1%
0O
1w
0&
b1 u
b1 !"
b1 ."
b0 v
b0 -"
b0 1"
b100110 {
0N
0t
0|
b11101110011010110010011010100 @"
b11 i
b11 /"
b100111 ~
b11101110011010110010011010101 C"
1(
#4700
0(
#4750
b11101110011010110010011010011 ?"
b100101 z
b11101110011010110010011010011 @"
b100101 {
0P
b1 R
b1 h
b1 m
b1 S
b1 Y
b1 g
b11101110011010110010011010100 C"
b100110 ~
b1 W
b1 X
b1 ]
b1 \
b100 i
1(
#4800
0(
#4850
b100100 z
b11101110011010110010011010010 ?"
b100100 {
b11101110011010110010011010010 @"
b100101 ~
b11101110011010110010011010011 C"
1(
#4900
0(
#4950
b11101110011010110010011010001 ?"
b100011 z
b11101110011010110010011010001 @"
b100011 {
b11101110011010110010011010010 C"
b100100 ~
1(
#5000
0(
#5050
b100010 z
b11101110011010110010011010000 ?"
b100010 {
b11101110011010110010011010000 @"
b100011 ~
b11101110011010110010011010001 C"
1(
#5100
0(
#5150
b11101110011010110010011001111 ?"
b100001 z
b11101110011010110010011001111 @"
b100001 {
b11101110011010110010011010000 C"
b100010 ~
1(
#5200
0(
#5250
b100000 z
b11101110011010110010011001110 ?"
b100000 {
b11101110011010110010011001110 @"
b100001 ~
b11101110011010110010011001111 C"
1(
#5300
0(
#5350
b11101110011010110010011001101 ?"
b11111 z
b11101110011010110010011001101 @"
b11111 {
b11101110011010110010011001110 C"
b100000 ~
1(
#5400
0(
#5450
b11110 z
b11101110011010110010011001100 ?"
b11110 {
b11101110011010110010011001100 @"
b11111 ~
b11101110011010110010011001101 C"
1(
#5500
0(
#5550
b11101110011010110010011001011 ?"
b11101 z
b11101110011010110010011001011 @"
b11101 {
b11101110011010110010011001100 C"
b11110 ~
1(
#5600
0(
#5650
b11100 z
b11101110011010110010011001010 ?"
b11100 {
b11101110011010110010011001010 @"
b11101 ~
b11101110011010110010011001011 C"
1(
#5700
0(
#5750
b11101110011010110010011001001 ?"
b11011 z
b11101110011010110010011001001 @"
b11011 {
b11101110011010110010011001010 C"
b11100 ~
1(
#5800
0(
#5850
b11010 z
b11101110011010110010011001000 ?"
b11010 {
b11101110011010110010011001000 @"
b11011 ~
b11101110011010110010011001001 C"
1(
#5900
0(
#5950
b11101110011010110010011000111 ?"
b11001 z
b11101110011010110010011000111 @"
b11001 {
b11101110011010110010011001000 C"
b11010 ~
1(
#6000
0(
#6050
b11000 z
b11101110011010110010011000110 ?"
b11000 {
b11101110011010110010011000110 @"
b11001 ~
b11101110011010110010011000111 C"
1(
#6100
0(
#6150
b11101110011010110010011000101 ?"
b10111 z
b11101110011010110010011000101 @"
b10111 {
b11101110011010110010011000110 C"
b11000 ~
1(
#6200
0(
#6250
b10110 z
b11101110011010110010011000100 ?"
b10110 {
b11101110011010110010011000100 @"
b10111 ~
b11101110011010110010011000101 C"
1(
#6300
0(
#6350
b11101110011010110010011000011 ?"
b10101 z
b11101110011010110010011000011 @"
b10101 {
b11101110011010110010011000100 C"
b10110 ~
1(
#6400
0(
#6450
b10100 z
b11101110011010110010011000010 ?"
b10100 {
b11101110011010110010011000010 @"
b10101 ~
b11101110011010110010011000011 C"
1(
#6500
0(
#6550
b11101110011010110010011000001 ?"
b10011 z
b11101110011010110010011000001 @"
b10011 {
b11101110011010110010011000010 C"
b10100 ~
1(
#6600
0(
#6650
b10010 z
b11101110011010110010011000000 ?"
b10010 {
b11101110011010110010011000000 @"
b10011 ~
b11101110011010110010011000001 C"
1(
#6700
0(
#6750
b11101110011010110010010111111 ?"
b10001 z
b11101110011010110010010111111 @"
b10001 {
b11101110011010110010011000000 C"
b10010 ~
1(
#6800
0(
#6850
b10000 z
b11101110011010110010010111110 ?"
b10000 {
b11101110011010110010010111110 @"
b10001 ~
b11101110011010110010010111111 C"
1(
#6900
0(
#6950
b11101110011010110010010111101 ?"
b1111 z
b11101110011010110010010111101 @"
b1111 {
b11101110011010110010010111110 C"
b10000 ~
1(
#7000
0(
#7050
b1110 z
b11101110011010110010010111100 ?"
b1110 {
b11101110011010110010010111100 @"
b1111 ~
b11101110011010110010010111101 C"
1(
#7100
0(
#7150
b11101110011010110010010111011 ?"
b1101 z
b11101110011010110010010111011 @"
b1101 {
b11101110011010110010010111100 C"
b1110 ~
1(
#7200
0(
#7250
b1100 z
b11101110011010110010010111010 ?"
b1100 {
b11101110011010110010010111010 @"
b1101 ~
b11101110011010110010010111011 C"
1(
#7300
0(
#7350
b11101110011010110010010111001 ?"
b1011 z
b11101110011010110010010111001 @"
b1011 {
b11101110011010110010010111010 C"
b1100 ~
1(
#7400
0(
#7450
b1010 z
b11101110011010110010010111000 ?"
b1010 {
b11101110011010110010010111000 @"
b1011 ~
b11101110011010110010010111001 C"
1(
#7500
0(
#7550
b11101110011010110010010110111 ?"
b1001 z
b11101110011010110010010110111 @"
b1001 {
b11101110011010110010010111000 C"
b1010 ~
1(
#7600
0(
#7650
b1000 z
b11101110011010110010010110110 ?"
b1000 {
b11101110011010110010010110110 @"
b1001 ~
b11101110011010110010010110111 C"
1(
#7700
0(
#7750
b11101110011010110010010110101 ?"
b111 z
b11101110011010110010010110101 @"
b111 {
b11101110011010110010010110110 C"
b1000 ~
1(
#7800
0(
#7850
b110 z
b11101110011010110010010110100 ?"
b110 {
b11101110011010110010010110100 @"
b111 ~
b11101110011010110010010110101 C"
1(
#7900
0(
#7950
b11101110011010110010010110011 ?"
b101 z
b11101110011010110010010110011 @"
b101 {
b11101110011010110010010110100 C"
b110 ~
1(
#8000
0(
#8050
b100 z
b11101110011010110010010110010 ?"
b100 {
b11101110011010110010010110010 @"
b101 ~
b11101110011010110010010110011 C"
1(
#8100
0(
#8150
b11101110011010110010010110001 ?"
b11 z
b11101110011010110010010110001 @"
b11 {
b11101110011010110010010110010 C"
b100 ~
1(
#8200
0(
#8250
b10 z
b11101110011010110010010110000 ?"
b10 {
b11101110011010110010010110000 @"
b11 ~
b11101110011010110010010110001 C"
1(
#8300
0(
#8350
b11101110011010110010010101111 ?"
b1 z
b11101110011010110010010101111 @"
b1 {
b11101110011010110010010110000 C"
b10 ~
1(
#8400
0(
#8450
b0 z
b11101110011010110010010101110 ?"
b0 {
b11101110011010110010010101110 @"
b1 ~
b11101110011010110010010101111 C"
1(
#8500
0(
#8550
b11101110011010110010010101101 ?"
b100111 z
b100 ,"
0O
1w
1%
0&
b1 u
b1 !"
b1 ."
b0 v
b0 -"
b0 1"
b11 f
0P
b1 R
b1 h
b1 m
b1 S
b1 Y
b1 g
b11101110011010110010010101101 @"
b11111111 {
1N
1t
1|
b11101110011010110010010101110 C"
b0 ~
1(
#8600
0(
#8650
b10 [
b1 #"
b101110 3"
b100110 z
b11101110011010110010010101100 ?"
b100 f
0P
b1 R
b1 h
b1 m
b10 S
b10 Y
b10 g
b101 ,"
0O
1w
0%
0&
b10 u
b10 !"
b10 ."
b10 v
b10 -"
b10 1"
b100110 {
0N
0t
0|
b11101110011010110010010101100 @"
b11 i
b100 /"
b100111 ~
b11101110011010110010010101101 C"
1(
#8700
0(
#8750
b11101110011010110010010101011 ?"
b100101 z
b11101110011010110010010101011 @"
0!
b100101 {
0O
1w
0&
b1 u
b1 !"
b1 ."
b0 v
b0 -"
b0 1"
0P
b1 R
b1 h
b1 m
b1 S
b1 Y
b1 g
b11101110011010110010010101100 C"
b101110 4"
b1 $"
b100110 ~
b101 /"
b10 W
b10 X
b10 ]
b10 \
b100 i
1(
#8800
0(
#8850
b100100 z
b11101110011010110010010101010 ?"
b100100 {
b11101110011010110010010101010 @"
b100101 ~
b11101110011010110010010101011 C"
1(
#8900
0(
#8950
b11101110011010110010010101001 ?"
b100011 z
b11101110011010110010010101001 @"
b100011 {
b11101110011010110010010101010 C"
b100100 ~
1(
#9000
0(
#9050
b100010 z
b11101110011010110010010101000 ?"
b100010 {
b11101110011010110010010101000 @"
b100011 ~
b11101110011010110010010101001 C"
1(
#9100
0(
#9150
b11101110011010110010010100111 ?"
b100001 z
b11101110011010110010010100111 @"
b100001 {
b11101110011010110010010101000 C"
b100010 ~
1(
#9200
0(
#9250
b100000 z
b11101110011010110010010100110 ?"
b100000 {
b11101110011010110010010100110 @"
b100001 ~
b11101110011010110010010100111 C"
1(
#9300
0(
#9350
b11101110011010110010010100101 ?"
b11111 z
b11101110011010110010010100101 @"
b11111 {
b11101110011010110010010100110 C"
b100000 ~
1(
#9400
0(
#9450
b11110 z
b11101110011010110010010100100 ?"
b11110 {
b11101110011010110010010100100 @"
b11111 ~
b11101110011010110010010100101 C"
1(
#9500
0(
#9550
b11101110011010110010010100011 ?"
b11101 z
b11101110011010110010010100011 @"
b11101 {
b11101110011010110010010100100 C"
b11110 ~
1(
#9600
0(
#9650
b11100 z
b11101110011010110010010100010 ?"
b11100 {
b11101110011010110010010100010 @"
b11101 ~
b11101110011010110010010100011 C"
1(
#9700
0(
#9750
b11101110011010110010010100001 ?"
b11011 z
b11101110011010110010010100001 @"
b11011 {
b11101110011010110010010100010 C"
b11100 ~
1(
#9800
0(
#9850
b11010 z
b11101110011010110010010100000 ?"
b11010 {
b11101110011010110010010100000 @"
b11011 ~
b11101110011010110010010100001 C"
1(
#9900
0(
#9950
b11101110011010110010010011111 ?"
b11001 z
b11101110011010110010010011111 @"
b11001 {
b11101110011010110010010100000 C"
b11010 ~
1(
#10000
0(
#10050
b11000 z
b11101110011010110010010011110 ?"
b11000 {
b11101110011010110010010011110 @"
b11001 ~
b11101110011010110010010011111 C"
1(
#10100
0(
#10150
b11101110011010110010010011101 ?"
b10111 z
b11101110011010110010010011101 @"
b10111 {
b11101110011010110010010011110 C"
b11000 ~
1(
#10200
0(
#10250
b10110 z
b11101110011010110010010011100 ?"
b10110 {
b11101110011010110010010011100 @"
b10111 ~
b11101110011010110010010011101 C"
1(
#10300
0(
#10350
b11101110011010110010010011011 ?"
b10101 z
b11101110011010110010010011011 @"
b10101 {
b11101110011010110010010011100 C"
b10110 ~
1(
#10400
0(
#10450
b10100 z
b11101110011010110010010011010 ?"
b10100 {
b11101110011010110010010011010 @"
b10101 ~
b11101110011010110010010011011 C"
1(
#10500
0(
#10550
b11101110011010110010010011001 ?"
b10011 z
b11101110011010110010010011001 @"
b10011 {
b11101110011010110010010011010 C"
b10100 ~
1(
#10600
0(
#10650
b10010 z
b11101110011010110010010011000 ?"
b10010 {
b11101110011010110010010011000 @"
b10011 ~
b11101110011010110010010011001 C"
1(
#10700
0(
#10750
b11101110011010110010010010111 ?"
b10001 z
b11101110011010110010010010111 @"
b10001 {
b11101110011010110010010011000 C"
b10010 ~
1(
#10800
0(
#10850
b10000 z
b11101110011010110010010010110 ?"
b10000 {
b11101110011010110010010010110 @"
b10001 ~
b11101110011010110010010010111 C"
1(
#10900
0(
#10950
b11101110011010110010010010101 ?"
b1111 z
b11101110011010110010010010101 @"
b1111 {
b11101110011010110010010010110 C"
b10000 ~
1(
#11000
0(
#11050
b1110 z
b11101110011010110010010010100 ?"
b1110 {
b11101110011010110010010010100 @"
b1111 ~
b11101110011010110010010010101 C"
1(
#11100
0(
#11150
b11101110011010110010010010011 ?"
b1101 z
b11101110011010110010010010011 @"
b1101 {
b11101110011010110010010010100 C"
b1110 ~
1(
#11200
0(
#11250
b1100 z
b11101110011010110010010010010 ?"
b1100 {
b11101110011010110010010010010 @"
b1101 ~
b11101110011010110010010010011 C"
1(
#11300
0(
#11350
b11101110011010110010010010001 ?"
b1011 z
b11101110011010110010010010001 @"
b1011 {
b11101110011010110010010010010 C"
b1100 ~
1(
#11400
0(
#11450
b1010 z
b11101110011010110010010010000 ?"
b1010 {
b11101110011010110010010010000 @"
b1011 ~
b11101110011010110010010010001 C"
1(
#11500
0(
#11550
b11101110011010110010010001111 ?"
b1001 z
b11101110011010110010010001111 @"
b1001 {
b11101110011010110010010010000 C"
b1010 ~
1(
#11600
0(
#11650
b1000 z
b11101110011010110010010001110 ?"
b1000 {
b11101110011010110010010001110 @"
b1001 ~
b11101110011010110010010001111 C"
1(
#11700
0(
#11750
b11101110011010110010010001101 ?"
b111 z
b11101110011010110010010001101 @"
b111 {
b11101110011010110010010001110 C"
b1000 ~
1(
#11800
0(
#11850
b110 z
b11101110011010110010010001100 ?"
b110 {
b11101110011010110010010001100 @"
b111 ~
b11101110011010110010010001101 C"
1(
#11900
0(
