proyectos/01_spi_one_ch/verilog_codes/spi_one_ch_tb.vcd
$date
	Tue Aug 08 21:15:44 2023
$end
$version
	Icarus Verilog
$end
$timescale
	100ps
$end
$scope module spi_one_ch_tb $end
$var wire 1 ! mosi $end
$var wire 1 " eoc $end
$var wire 12 # dout [11:0] $end
$var wire 1 $ dclk $end
$var wire 1 % cs $end
$var reg 1 & button $end
$var reg 1 ' clk $end
$var reg 1 ( miso $end
$var reg 1 ) rst $end
$scope module dut $end
$var wire 1 & button_i $end
$var wire 1 ' clk_i $end
$var wire 1 ( miso_i $end
$var wire 1 ) rst_i $end
$var wire 1 * start $end
$var wire 1 ! mosi_o $end
$var wire 1 " eoc_o $end
$var wire 12 + dout_o [11:0] $end
$var wire 1 $ dclk_o $end
$var wire 1 % cs_o $end
$var parameter 8 , cmd_i $end
$var parameter 29 - k_i $end
$scope module mod_spi $end
$var wire 1 ' clk_i $end
$var wire 8 . cmd_i [7:0] $end
$var wire 1 " eoc_o $end
$var wire 1 ( miso_i $end
$var wire 1 ) rst_i $end
$var wire 1 * strc_i $end
$var wire 1 / slow_clk $end
$var wire 1 ! mosi_o $end
$var wire 1 0 eow $end
$var wire 1 1 eor $end
$var wire 12 2 dout_o [11:0] $end
$var wire 1 $ dclk_o $end
$var wire 1 % cs_o $end
$scope module mod_spir $end
$var wire 1 ' clk_i $end
$var wire 1 ( miso_i $end
$var wire 1 ) rst_i $end
$var wire 1 * strr_i $end
$var wire 1 / slow_clk_i $end
$var wire 2 3 opc2 [1:0] $end
$var wire 2 4 opc1 [1:0] $end
$var wire 1 5 hab $end
$var wire 1 1 eor_o $end
$var wire 12 6 dout_o [11:0] $end
$var wire 16 7 data [15:0] $end
$var wire 6 8 cnt [5:0] $end
$scope module mod_cnt_r $end
$var wire 1 ' clk_i $end
$var wire 6 9 cnt_o [5:0] $end
$var wire 1 ) rst_i $end
$var wire 2 : opc_i [1:0] $end
$var parameter 32 ; Width $end
$var reg 6 < mux_d [5:0] $end
$var reg 6 = reg_q [5:0] $end
$upscope $end
$scope module mod_fsm $end
$var wire 1 ' clk_i $end
$var wire 6 > cnt_i [5:0] $end
$var wire 1 ) rst_i $end
$var wire 1 * strr_i $end
$var wire 1 / slow_clk_i $end
$var parameter 4 ? s0 $end
$var parameter 4 @ s1 $end
$var parameter 4 A s2 $end
$var parameter 4 B s3 $end
$var parameter 4 C s4 $end
$var parameter 4 D s5 $end
$var parameter 4 E s6 $end
$var parameter 4 F s7 $end
$var reg 1 1 eor_o $end
$var reg 1 5 hab_o $end
$var reg 4 G next_state [3:0] $end
$var reg 2 H opc1_o [1:0] $end
$var reg 2 I opc2_o [1:0] $end
$var reg 4 J present_state [3:0] $end
$upscope $end
$scope module mod_pipo $end
$var wire 1 ' clk_i $end
$var wire 12 K din_i [11:0] $end
$var wire 1 5 hab_i $end
$var wire 1 ) rst_i $end
$var parameter 32 L Width $end
$var reg 12 M dout_o [11:0] $end
$upscope $end
$scope module mod_sipo $end
$var wire 1 ' clk_i $end
$var wire 1 ( din_i $end
$var wire 2 N op_i [1:0] $end
$var wire 1 ) rst_i $end
$var wire 16 O dout_o [15:0] $end
$var parameter 32 P Width $end
$var reg 16 Q mux_d [15:0] $end
$var reg 16 R reg_q [15:0] $end
$upscope $end
$upscope $end
$scope module mod_spiw $end
$var wire 1 ' clk_i $end
$var wire 8 S cmd_i [7:0] $end
$var wire 1 ) rst_i $end
$var wire 1 / slow_clk_o $end
$var wire 1 * strw_i $end
$var wire 1 T slow_clk $end
$var wire 2 U opc2 [1:0] $end
$var wire 2 V opc1 [1:0] $end
$var wire 1 ! mosi_o $end
$var wire 1 W hab $end
$var wire 1 X flag $end
$var wire 1 0 eow_o $end
$var wire 1 $ dclk_o $end
$var wire 1 % cs_o $end
$var wire 5 Y count [4:0] $end
$scope module mod_clkdiv $end
$var wire 1 ' clk_i $end
$var wire 6 Z kmax_i [5:0] $end
$var wire 1 ) rst_i $end
$var wire 1 T slow_clk_o $end
$var wire 6 [ mux2_d [5:0] $end
$var wire 6 \ mux1 [5:0] $end
$var wire 1 W h_i $end
$var wire 1 ] comp $end
$var parameter 32 ^ Width $end
$var reg 6 _ reg_q [5:0] $end
$upscope $end
$scope module mod_cnt_w $end
$var wire 1 ' clk_i $end
$var wire 1 ) rst_i $end
$var wire 2 ` opc_i [1:0] $end
$var wire 1 X flag_o $end
$var wire 5 a cnt_o [4:0] $end
$var parameter 32 b Width $end
$var reg 5 c mux_d [4:0] $end
$var reg 5 d reg_q [4:0] $end
$upscope $end
$scope module mod_fsm_w $end
$var wire 1 ' clk_i $end
$var wire 1 X flag_i $end
$var wire 1 ) rst_i $end
$var wire 1 T slow_clk_i $end
$var wire 1 * strw_i $end
$var parameter 3 e s0 $end
$var parameter 3 f s1 $end
$var parameter 3 g s2 $end
$var parameter 3 h s3 $end
$var parameter 3 i s4 $end
$var parameter 3 j s5 $end
$var parameter 3 k s6 $end
$var reg 1 % cs_o $end
$var reg 1 $ dclk_o $end
$var reg 1 0 eow_o $end
$var reg 1 W hab_o $end
$var reg 3 l next_state [2:0] $end
$var reg 2 m opc1_o [1:0] $end
$var reg 2 n opc2_o [1:0] $end
$var reg 3 o present_state [2:0] $end
$upscope $end
$scope module mod_piso $end
$var wire 1 ' clk_i $end
$var wire 8 p din_i [7:0] $end
$var wire 2 q op_i [1:0] $end
$var wire 1 ) rst_i $end
$var wire 1 ! dout_o $end
$var parameter 32 r Width $end
$var reg 8 s mux_d [7:0] $end
$var reg 8 t reg_q [7:0] $end
$upscope $end
$upscope $end
$upscope $end
$scope module mod_tick $end
$var wire 1 & button_i $end
$var wire 1 ' clk_i $end
$var wire 29 u k_i [28:0] $end
$var wire 1 ) rst_i $end
$var wire 1 v z $end
$var wire 1 * start_o $end
$var wire 1 w en $end
$var parameter 32 x Width $end
$scope module mod_fsm_tick $end
$var wire 1 & button_i $end
$var wire 1 ' clk_i $end
$var wire 1 ) rst_i $end
$var wire 1 v z_i $end
$var parameter 2 y s0 $end
$var parameter 2 z s1 $end
$var parameter 2 { s2 $end
$var reg 1 w en_o $end
$var reg 2 | next_state [1:0] $end
$var reg 2 } present_state [1:0] $end
$var reg 1 * start_o $end
$upscope $end
$scope module mod_timer $end
$var wire 1 ' clk_i $end
$var wire 1 w en_i $end
$var wire 29 ~ k_i [28:0] $end
$var wire 1 ) rst_i $end
$var wire 1 v z_o $end
$var wire 29 !" mux2_d [28:0] $end
$var wire 29 "" mux1 [28:0] $end
$var wire 1 #" comp $end
$var parameter 32 $" Width $end
$var reg 29 %" reg_q [28:0] $end
$upscope $end
$upscope $end
$upscope $end
$upscope $end
$enddefinitions $end
$comment Show the parameter values. $end
$dumpall
b11101 $"
b10 {
b1 z
b0 y
b11101 x
b1000 r
b110 k
b101 j
b100 i
b11 h
b10 g
b1 f
b0 e
b101 b
b110 ^
b10000 P
b1100 L
b111 F
b110 E
b101 D
b100 C
b11 B
b10 A
b1 @
b0 ?
b110 ;
b11101110011010110010011111111 -
b10010111 ,
$end
#0
$dumpvars
b0 %"
1#"
b0 ""
b11101110011010110010011111111 !"
b11101110011010110010011111111 ~
b0 }
b0 |
0w
1v
b11101110011010110010011111111 u
b0 t
b0 s
b11 q
b10010111 p
b0 o
b11 n
b11 m
b0 l
b0 d
b0 c
b0 a
b11 `
b0 _
1]
b0 \
b100111 [
b100111 Z
b0 Y
0X
0W
b11 V
b11 U
1T
b10010111 S
b0 R
b0 Q
b0 O
b0 N
b0 M
b0 K
b0 J
b0 I
b0 H
b0 G
b0 >
b0 =
b0 <
b0 :
b0 9
b0 8
b0 7
b0 6
05
b0 4
b0 3
b0 2
11
10
1/
b10010111 .
b0 +
0*
1)
1(
0'
0&
1%
0$
b0 #
1"
0!
$end
#50
1'
#100
0'
0)
#150
b11101110011010110010011111111 ""
0v
0#"
b100111 \
0/
0T
0]
b11101110011010110010011111111 %"
b100111 _
1'
#200
0'
#250
1'
#300
b1 |
0'
1&
#350
b1 G
b1 l
b10 |
1*
b1 }
1'
#400
b1 G
b1 l
b10 |
1*
0'
0&
#450
b11101110011010110010011111110 !"
0"
b11101110011010110010011111110 ""
b10 G
01
b1 3
b1 I
b1 N
b1 4
b1 :
b1 H
b10 l
00
0%
b1 U
b1 `
b1 n
b0 V
b0 m
b0 q
1w
0*
b1 J
b1 o
b10 }
1'
#500
0'
#550
b100110 [
b11101110011010110010011111101 !"
b100110 \
b10010111 s
b11101110011010110010011111101 ""
1W
00
0%
b1 U
b1 `
b1 n
b1 V
b1 m
b1 q
01
b1 3
b1 I
b1 N
b1 4
b1 :
b1 H
b11101110011010110010011111110 %"
b10 o
b10 J
1'
#600
0'
#650
b100101 [
b11101110011010110010011111100 !"
b100101 \
1!
b11101110011010110010011111100 ""
b100110 _
b10010111 t
b11101110011010110010011111101 %"
1'
#700
0'
#750
b11101110011010110010011111011 !"
b100100 [
b11101110011010110010011111011 ""
b100100 \
b11101110011010110010011111100 %"
b100101 _
1'
#800
0'
#850
b100011 [
b11101110011010110010011111010 !"
b100011 \
b11101110011010110010011111010 ""
b100100 _
b11101110011010110010011111011 %"
1'
#900
0'
#950
b11101110011010110010011111001 !"
b100010 [
b11101110011010110010011111001 ""
b100010 \
b11101110011010110010011111010 %"
b100011 _
1'
#1000
0'
#1050
b100001 [
b11101110011010110010011111000 !"
b100001 \
b11101110011010110010011111000 ""
b100010 _
b11101110011010110010011111001 %"
1'
#1100
0'
#1150
b11101110011010110010011110111 !"
b100000 [
b11101110011010110010011110111 ""
b100000 \
b11101110011010110010011111000 %"
b100001 _
1'
#1200
0'
#1250
b11111 [
b11101110011010110010011110110 !"
b11111 \
b11101110011010110010011110110 ""
b100000 _
b11101110011010110010011110111 %"
1'
#1300
0'
#1350
b11101110011010110010011110101 !"
b11110 [
b11101110011010110010011110101 ""
b11110 \
b11101110011010110010011110110 %"
b11111 _
1'
#1400
0'
#1450
b11101 [
b11101110011010110010011110100 !"
b11101 \
b11101110011010110010011110100 ""
b11110 _
b11101110011010110010011110101 %"
1'
#1500
0'
#1550
b11101110011010110010011110011 !"
b11100 [
b11101110011010110010011110011 ""
b11100 \
b11101110011010110010011110100 %"
b11101 _
1'
#1600
0'
#1650
b11011 [
b11101110011010110010011110010 !"
b11011 \
b11101110011010110010011110010 ""
b11100 _
b11101110011010110010011110011 %"
1'
#1700
0'
#1750
b11101110011010110010011110001 !"
b11010 [
b11101110011010110010011110001 ""
b11010 \
b11101110011010110010011110010 %"
b11011 _
1'
#1800
0'
#1850
b11001 [
b11101110011010110010011110000 !"
b11001 \
b11101110011010110010011110000 ""
b11010 _
b11101110011010110010011110001 %"
1'
#1900
0'
#1950
b11101110011010110010011101111 !"
b11000 [
b11101110011010110010011101111 ""
b11000 \
b11101110011010110010011110000 %"
b11001 _
1'
#2000
0'
#2050
b10111 [
b11101110011010110010011101110 !"
b10111 \
b11101110011010110010011101110 ""
b11000 _
b11101110011010110010011101111 %"
1'
#2100
0'
#2150
b11101110011010110010011101101 !"
b10110 [
b11101110011010110010011101101 ""
b10110 \
b11101110011010110010011101110 %"
b10111 _
1'
#2200
0'
#2250
b10101 [
b11101110011010110010011101100 !"
b10101 \
b11101110011010110010011101100 ""
b10110 _
b11101110011010110010011101101 %"
1'
#2300
0'
#2350
b11101110011010110010011101011 !"
b10100 [
b11101110011010110010011101011 ""
b10100 \
b11101110011010110010011101100 %"
b10101 _
1'
#2400
0'
#2450
b10011 [
b11101110011010110010011101010 !"
b10011 \
b11101110011010110010011101010 ""
b10100 _
b11101110011010110010011101011 %"
1'
#2500
0'
#2550
b11101110011010110010011101001 !"
b10010 [
b11101110011010110010011101001 ""
b10010 \
b11101110011010110010011101010 %"
b10011 _
1'
#2600
0'
#2650
b10001 [
b11101110011010110010011101000 !"
b10001 \
b11101110011010110010011101000 ""
b10010 _
b11101110011010110010011101001 %"
1'
#2700
0'
#2750
b11101110011010110010011100111 !"
b10000 [
b11101110011010110010011100111 ""
b10000 \
b11101110011010110010011101000 %"
b10001 _
1'
#2800
0'
#2850
b1111 [
b11101110011010110010011100110 !"
b1111 \
b11101110011010110010011100110 ""
b10000 _
b11101110011010110010011100111 %"
1'
#2900
0'
#2950
b11101110011010110010011100101 !"
b1110 [
b11101110011010110010011100101 ""
b1110 \
b11101110011010110010011100110 %"
b1111 _
1'
#3000
0'
#3050
b1101 [
b11101110011010110010011100100 !"
b1101 \
b11101110011010110010011100100 ""
b1110 _
b11101110011010110010011100101 %"
1'
#3100
0'
#3150
b11101110011010110010011100011 !"
b1100 [
b11101110011010110010011100011 ""
b1100 \
b11101110011010110010011100100 %"
b1101 _
1'
#3200
0'
#3250
b1011 [
b11101110011010110010011100010 !"
b1011 \
b11101110011010110010011100010 ""
b1100 _
b11101110011010110010011100011 %"
1'
#3300
0'
#3350
b11101110011010110010011100001 !"
b1010 [
b11101110011010110010011100001 ""
b1010 \
b11101110011010110010011100010 %"
b1011 _
1'
#3400
0'
#3450
b1001 [
b11101110011010110010011100000 !"
b1001 \
b11101110011010110010011100000 ""
b1010 _
b11101110011010110010011100001 %"
1'
#3500
0'
#3550
b11101110011010110010011011111 !"
b1000 [
b11101110011010110010011011111 ""
b1000 \
b11101110011010110010011100000 %"
b1001 _
1'
#3600
0'
#3650
b111 [
b11101110011010110010011011110 !"
b111 \
b11101110011010110010011011110 ""
b1000 _
b11101110011010110010011011111 %"
1'
#3700
0'
#3750
b11101110011010110010011011101 !"
b110 [
b11101110011010110010011011101 ""
b110 \
b11101110011010110010011011110 %"
b111 _
1'
#3800
0'
#3850
b101 [
b11101110011010110010011011100 !"
b101 \
b11101110011010110010011011100 ""
b110 _
b11101110011010110010011011101 %"
1'
#3900
0'
#3950
b11101110011010110010011011011 !"
b100 [
b11101110011010110010011011011 ""
b100 \
b11101110011010110010011011100 %"
b101 _
1'
#4000
0'
#4050
b11 [
b11101110011010110010011011010 !"
b11 \
b11101110011010110010011011010 ""
b100 _
b11101110011010110010011011011 %"
1'
#4100
0'
#4150
b11101110011010110010011011001 !"
b10 [
b11101110011010110010011011001 ""
b10 \
b11101110011010110010011011010 %"
b11 _
1'
#4200
0'
#4250
b1 [
b11101110011010110010011011000 !"
b1 \
b11101110011010110010011011000 ""
b10 _
b11101110011010110010011011001 %"
1'
#4300
0'
#4350
b11101110011010110010011010111 !"
b0 [
b11101110011010110010011010111 ""
b0 \
b11101110011010110010011011000 %"
b1 _
1'
#4400
0'
#4450
b100111 [
b11 l
00
1W
0%
b1 U
b1 `
b1 n
b1 V
b1 m
b1 q
b11 G
01
b1 3
b1 I
b1 N
b1 4
b1 :
b1 H
b11101110011010110010011010110 !"
b111111 \
1/
1T
1]
b11101110011010110010011010110 ""
b0 _
b11101110011010110010011010111 %"
1'
#4500
0'
#4550
b11101110011010110010011010101 !"
b100110 [
b1 <
b11101110011010110010011010101 ""
b100110 \
0/
0T
0]
b11 l
1$
00
1W
0%
b1 U
b1 `
b1 n
b0 V
b0 m
b0 q
b100 G
01
b1 3
b1 I
b1 N
b10 4
b10 :
b10 H
b11101110011010110010011010110 %"
b100111 _
b11 o
b11 J
1'
#4600
0'
#4650
b100101 [
b11101110011010110010011010100 !"
01
b1 3
b1 I
b1 N
b1 4
b1 :
b1 H
b100101 \
b11101110011010110010011010100 ""
b100 J
b1 8
b1 9
b1 >
b1 =
b100110 _
b11101110011010110010011010101 %"
1'
#4700
0'
#4750
b11101110011010110010011010011 !"
b100100 [
b11101110011010110010011010011 ""
b100100 \
b11101110011010110010011010100 %"
b100101 _
1'
#4800
0'
#4850
b100011 [
b11101110011010110010011010010 !"
b100011 \
b11101110011010110010011010010 ""
b100100 _
b11101110011010110010011010011 %"
1'
#4900
0'
#4950
b11101110011010110010011010001 !"
b100010 [
b11101110011010110010011010001 ""
b100010 \
b11101110011010110010011010010 %"
b100011 _
1'
#5000
0'
#5050
b100001 [
b11101110011010110010011010000 !"
b100001 \
b11101110011010110010011010000 ""
b100010 _
b11101110011010110010011010001 %"
1'
#5100
0'
#5150
b11101110011010110010011001111 !"
b100000 [
b11101110011010110010011001111 ""
b100000 \
b11101110011010110010011010000 %"
b100001 _
1'
#5200
0'
#5250
b11111 [
b11101110011010110010011001110 !"
b11111 \
b11101110011010110010011001110 ""
b100000 _
b11101110011010110010011001111 %"
1'
#5300
0'
#5350
b11101110011010110010011001101 !"
b11110 [
b11101110011010110010011001101 ""
b11110 \
b11101110011010110010011001110 %"
b11111 _
1'
#5400
0'
#5450
b11101 [
b11101110011010110010011001100 !"
b11101 \
b11101110011010110010011001100 ""
b11110 _
b11101110011010110010011001101 %"
1'
#5500
0'
#5550
b11101110011010110010011001011 !"
b11100 [
b11101110011010110010011001011 ""
b11100 \
b11101110011010110010011001100 %"
b11101 _
1'
#5600
0'
#5650
b11011 [
b11101110011010110010011001010 !"
b11011 \
b11101110011010110010011001010 ""
b11100 _
b11101110011010110010011001011 %"
1'
#5700
0'
#5750
b11101110011010110010011001001 !"
b11010 [
b11101110011010110010011001001 ""
b11010 \
b11101110011010110010011001010 %"
b11011 _
1'
#5800
0'
#5850
b11001 [
b11101110011010110010011001000 !"
b11001 \
b11101110011010110010011001000 ""
b11010 _
b11101110011010110010011001001 %"
1'
#5900
0'
#5950
b11101110011010110010011000111 !"
b11000 [
b11101110011010110010011000111 ""
b11000 \
b11101110011010110010011001000 %"
b11001 _
1'
#6000
0'
#6050
b10111 [
b11101110011010110010011000110 !"
b10111 \
b11101110011010110010011000110 ""
b11000 _
b11101110011010110010011000111 %"
1'
#6100
0'
#6150
b11101110011010110010011000101 !"
b10110 [
b11101110011010110010011000101 ""
b10110 \
b11101110011010110010011000110 %"
b10111 _
1'
#6200
0'
#6250
b10101 [
b11101110011010110010011000100 !"
b10101 \
b11101110011010110010011000100 ""
b10110 _
b11101110011010110010011000101 %"
1'
#6300
0'
#6350
b11101110011010110010011000011 !"
b10100 [
b11101110011010110010011000011 ""
b10100 \
b11101110011010110010011000100 %"
b10101 _
1'
#6400
0'
#6450
b10011 [
b11101110011010110010011000010 !"
b10011 \
b11101110011010110010011000010 ""
b10100 _
b11101110011010110010011000011 %"
1'
#6500
0'
#6550
b11101110011010110010011000001 !"
b10010 [
b11101110011010110010011000001 ""
b10010 \
b11101110011010110010011000010 %"
b10011 _
1'
#6600
0'
#6650
b10001 [
b11101110011010110010011000000 !"
b10001 \
b11101110011010110010011000000 ""
b10010 _
b11101110011010110010011000001 %"
1'
#6700
0'
#6750
b11101110011010110010010111111 !"
b10000 [
b11101110011010110010010111111 ""
b10000 \
b11101110011010110010011000000 %"
b10001 _
1'
#6800
0'
#6850
b1111 [
b11101110011010110010010111110 !"
b1111 \
b11101110011010110010010111110 ""
b10000 _
b11101110011010110010010111111 %"
1'
#6900
0'
#6950
b11101110011010110010010111101 !"
b1110 [
b11101110011010110010010111101 ""
b1110 \
b11101110011010110010010111110 %"
b1111 _
1'
#7000
0'
#7050
b1101 [
b11101110011010110010010111100 !"
b1101 \
b11101110011010110010010111100 ""
b1110 _
b11101110011010110010010111101 %"
1'
#7100
0'
#7150
b11101110011010110010010111011 !"
b1100 [
b11101110011010110010010111011 ""
b1100 \
b11101110011010110010010111100 %"
b1101 _
1'
#7200
0'
#7250
b1011 [
b11101110011010110010010111010 !"
b1011 \
b11101110011010110010010111010 ""
b1100 _
b11101110011010110010010111011 %"
1'
#7300
0'
#7350
b11101110011010110010010111001 !"
b1010 [
b11101110011010110010010111001 ""
b1010 \
b11101110011010110010010111010 %"
b1011 _
1'
#7400
0'
#7450
b1001 [
b11101110011010110010010111000 !"
b1001 \
b11101110011010110010010111000 ""
b1010 _
b11101110011010110010010111001 %"
1'
#7500
0'
#7550
b11101110011010110010010110111 !"
b1000 [
b11101110011010110010010110111 ""
b1000 \
b11101110011010110010010111000 %"
b1001 _
1'
#7600
0'
#7650
b111 [
b11101110011010110010010110110 !"
b111 \
b11101110011010110010010110110 ""
b1000 _
b11101110011010110010010110111 %"
1'
#7700
0'
#7750
b11101110011010110010010110101 !"
b110 [
b11101110011010110010010110101 ""
b110 \
b11101110011010110010010110110 %"
b111 _
1'
#7800
0'
#7850
b101 [
b11101110011010110010010110100 !"
b101 \
b11101110011010110010010110100 ""
b110 _
b11101110011010110010010110101 %"
1'
#7900
0'
#7950
b11101110011010110010010110011 !"
b100 [
b11101110011010110010010110011 ""
b100 \
b11101110011010110010010110100 %"
b101 _
1'
#8000
0'
#8050
b11 [
b11101110011010110010010110010 !"
b11 \
b11101110011010110010010110010 ""
b100 _
b11101110011010110010010110011 %"
1'
#8100
0'
#8150
b11101110011010110010010110001 !"
b10 [
b11101110011010110010010110001 ""
b10 \
b11101110011010110010010110010 %"
b11 _
1'
#8200
0'
#8250
b1 [
b11101110011010110010010110000 !"
b1 \
b11101110011010110010010110000 ""
b10 _
b11101110011010110010010110001 %"
1'
#8300
0'
#8350
b11101110011010110010010101111 !"
b0 [
b11101110011010110010010101111 ""
b0 \
b11101110011010110010010110000 %"
b1 _
1'
#8400
0'
#8450
b100111 [
b100 l
00
1W
1$
0%
b1 U
b1 `
b1 n
b0 V
b0 m
b0 q
b11 G
01
b1 3
b1 I
b1 N
b1 4
b1 :
b1 H
b11101110011010110010010101110 !"
b111111 \
1/
1T
1]
b11101110011010110010010101110 ""
b0 _
b11101110011010110010010101111 %"
1'
#8500
0'
#8550
b11101110011010110010010101101 !"
b100110 [
b1 c
b101110 s
b10 <
b11101110011010110010010101101 ""
b100110 \
0/
0T
0]
b101 l
00
1W
0$
0%
b10 U
b10 `
b10 n
b10 V
b10 m
b10 q
b100 G
01
b1 3
b1 I
b1 N
b10 4
b10 :
b10 H
b11101110011010110010010101110 %"
b100111 _
b100 o
b11 J
1'
#8600
0'
#8650
b100101 [
b11101110011010110010010101100 !"
01
b1 3
b1 I
b1 N
b1 4
b1 :
b1 H
00
1W
0%
b1 U
b1 `
b1 n
b0 V
b0 m
b0 q
b100101 \
b1 c
b101110 s
0!
b11101110011010110010010101100 ""
b100 J
b10 8
b10 9
b10 >
b10 =
b101 o
b100110 _
b1 Y
b1 a
b1 d
b101110 t
b11101110011010110010010101101 %"
1'
#8700
0'
#8750
b11101110011010110010010101011 !"
b100100 [
b11101110011010110010010101011 ""
b100100 \
b11101110011010110010010101100 %"
b100101 _
1'
#8800
0'
#8850
b100011 [
b11101110011010110010010101010 !"
b100011 \
b11101110011010110010010101010 ""
b100100 _
b11101110011010110010010101011 %"
1'
#8900
0'
#8950
b11101110011010110010010101001 !"
b100010 [
b11101110011010110010010101001 ""
b100010 \
b11101110011010110010010101010 %"
b100011 _
1'
#9000
0'
#9050
b100001 [
b11101110011010110010010101000 !"
b100001 \
b11101110011010110010010101000 ""
b100010 _
b11101110011010110010010101001 %"
1'
#9100
0'
#9150
b11101110011010110010010100111 !"
b100000 [
b11101110011010110010010100111 ""
b100000 \
b11101110011010110010010101000 %"
b100001 _
1'
#9200
0'
#9250
b11111 [
b11101110011010110010010100110 !"
b11111 \
b11101110011010110010010100110 ""
b100000 _
b11101110011010110010010100111 %"
1'
#9300
0'
#9350
b11101110011010110010010100101 !"
b11110 [
b11101110011010110010010100101 ""
b11110 \
b11101110011010110010010100110 %"
b11111 _
1'
#9400
0'
#9450
b11101 [
b11101110011010110010010100100 !"
b11101 \
b11101110011010110010010100100 ""
b11110 _
b11101110011010110010010100101 %"
1'
#9500
0'
#9550
b11101110011010110010010100011 !"
b11100 [
b11101110011010110010010100011 ""
b11100 \
b11101110011010110010010100100 %"
b11101 _
1'
#9600
0'
#9650
b11011 [
b11101110011010110010010100010 !"
b11011 \
b11101110011010110010010100010 ""
b11100 _
b11101110011010110010010100011 %"
1'
#9700
0'
#9750
b11101110011010110010010100001 !"
b11010 [
b11101110011010110010010100001 ""
b11010 \
b11101110011010110010010100010 %"
b11011 _
1'
#9800
0'
#9850
b11001 [
b11101110011010110010010100000 !"
b11001 \
b11101110011010110010010100000 ""
b11010 _
b11101110011010110010010100001 %"
1'
#9900
0'
#9950
b11101110011010110010010011111 !"
b11000 [
b11101110011010110010010011111 ""
b11000 \
b11101110011010110010010100000 %"
b11001 _
1'
#10000
0'
#10050
b10111 [
b11101110011010110010010011110 !"
b10111 \
b11101110011010110010010011110 ""
b11000 _
b11101110011010110010010011111 %"
1'
#10100
0'
#10150
b11101110011010110010010011101 !"
b10110 [
b11101110011010110010010011101 ""
b10110 \
b11101110011010110010010011110 %"
b10111 _
1'
#10200
0'
#10250
b10101 [
b11101110011010110010010011100 !"
b10101 \
b11101110011010110010010011100 ""
b10110 _
b11101110011010110010010011101 %"
1'
#10300
0'
#10350
b11101110011010110010010011011 !"
b10100 [
b11101110011010110010010011011 ""
b10100 \
b11101110011010110010010011100 %"
b10101 _
1'
#10400
0'
#10450
b10011 [
b11101110011010110010010011010 !"
b10011 \
b11101110011010110010010011010 ""
b10100 _
b11101110011010110010010011011 %"
1'
#10500
0'
#10550
b11101110011010110010010011001 !"
b10010 [
b11101110011010110010010011001 ""
b10010 \
b11101110011010110010010011010 %"
b10011 _
1'
#10600
0'
#10650
b10001 [
b11101110011010110010010011000 !"
b10001 \
b11101110011010110010010011000 ""
b10010 _
b11101110011010110010010011001 %"
1'
#10700
0'
#10750
b11101110011010110010010010111 !"
b10000 [
b11101110011010110010010010111 ""
b10000 \
b11101110011010110010010011000 %"
b10001 _
1'
#10800
0'
#10850
b1111 [
b11101110011010110010010010110 !"
b1111 \
b11101110011010110010010010110 ""
b10000 _
b11101110011010110010010010111 %"
1'
#10900
0'
#10950
b11101110011010110010010010101 !"
b1110 [
b11101110011010110010010010101 ""
b1110 \
b11101110011010110010010010110 %"
b1111 _
1'
#11000
0'
#11050
b1101 [
b11101110011010110010010010100 !"
b1101 \
b11101110011010110010010010100 ""
b1110 _
b11101110011010110010010010101 %"
1'
#11100
0'
#11150
b11101110011010110010010010011 !"
b1100 [
b11101110011010110010010010011 ""
b1100 \
b11101110011010110010010010100 %"
b1101 _
1'
#11200
0'
#11250
b1011 [
b11101110011010110010010010010 !"
b1011 \
b11101110011010110010010010010 ""
b1100 _
b11101110011010110010010010011 %"
1'
#11300
0'
#11350
b11101110011010110010010010001 !"
b1010 [
b11101110011010110010010010001 ""
b1010 \
b11101110011010110010010010010 %"
b1011 _
1'
#11400
0'
#11450
b1001 [
b11101110011010110010010010000 !"
b1001 \
b11101110011010110010010010000 ""
b1010 _
b11101110011010110010010010001 %"
1'
#11500
0'
#11550
b11101110011010110010010001111 !"
b1000 [
b11101110011010110010010001111 ""
b1000 \
b11101110011010110010010010000 %"
b1001 _
1'
#11600
0'
#11650
b111 [
b11101110011010110010010001110 !"
b111 \
b11101110011010110010010001110 ""
b1000 _
b11101110011010110010010001111 %"
1'
#11700
0'
#11750
b11101110011010110010010001101 !"
b110 [
b11101110011010110010010001101 ""
b110 \
b11101110011010110010010001110 %"
b111 _
1'
#11800
0'
#11850
b101 [
b11101110011010110010010001100 !"
b101 \
b11101110011010110010010001100 ""
b110 _
b11101110011010110010010001101 %"
1'
#11900
0'
#11950
b11101110011010110010010001011 !"
b100 [
b11101110011010110010010001011 ""
b100 \
b11101110011010110010010001100 %"
b101 _
1'
#12000
0'
#12050
b11 [
b11101110011010110010010001010 !"
b11 \
b11101110011010110010010001010 ""
b100 _
b11101110011010110010010001011 %"
1'
#12100
0'
#12150
b11101110011010110010010001001 !"
b10 [
b11101110011010110010010001001 ""
b10 \
b11101110011010110010010001010 %"
b11 _
1'
#12200
0'
#12250
b1 [
b11101110011010110010010001000 !"
b1 \
b11101110011010110010010001000 ""
b10 _
b11101110011010110010010001001 %"
1'
#12300
0'
#12350
b11101110011010110010010000111 !"
b0 [
b11101110011010110010010000111 ""
b0 \
b11101110011010110010010001000 %"
b1 _
1'
#12400
0'
#12450
b100111 [
b11 l
00
1W
0%
b1 U
b1 `
b1 n
b0 V
b0 m
b0 q
b11 G
01
b1 3
b1 I
b1 N
b1 4
b1 :
b1 H
b11101110011010110010010000110 !"
b111111 \
1/
1T
1]
b11101110011010110010010000110 ""
b0 _
b11101110011010110010010000111 %"
1'
#12500
0'
#12550
b11101110011010110010010000101 !"
b100110 [
b11 <
b11101110011010110010010000101 ""
b100110 \
0/
0T
0]
b11 l
1$
00
1W
0%
b1 U
b1 `
b1 n
b0 V
b0 m
b0 q
b100 G
01
b1 3
b1 I
b1 N
b10 4
b10 :
b10 H
b11101110011010110010010000110 %"
b100111 _
b11 o
b11 J
1'
#12600
0'
#12650
b100101 [
b11101110011010110010010000100 !"
01
b1 3
b1 I
b1 N
b1 4
b1 :
b1 H
b100101 \
b11101110011010110010010000100 ""
b100 J
b11 8
b11 9
b11 >
b11 =
b100110 _
b11101110011010110010010000101 %"
1'
#12700
0'
#12750
b11101110011010110010010000011 !"
b100100 [
b11101110011010110010010000011 ""
b100100 \
b11101110011010110010010000100 %"
b100101 _
1'
#12800
0'
#12850
b100011 [
b11101110011010110010010000010 !"
b100011 \
b11101110011010110010010000010 ""
b100100 _
b11101110011010110010010000011 %"
1'
#12900
0'
#12950
b11101110011010110010010000001 !"
b100010 [
b11101110011010110010010000001 ""
b100010 \
b11101110011010110010010000010 %"
b100011 _
1'
#13000
0'
#13050
b100001 [
b11101110011010110010010000000 !"
b100001 \
b11101110011010110010010000000 ""
b100010 _
b11101110011010110010010000001 %"
1'
#13100
0'
#13150
b11101110011010110010001111111 !"
b100000 [
b11101110011010110010001111111 ""
b100000 \
b11101110011010110010010000000 %"
b100001 _
1'
#13200
0'
#13250
b11111 [
b11101110011010110010001111110 !"
b11111 \
b11101110011010110010001111110 ""
b100000 _
b11101110011010110010001111111 %"
1'
#13300
0'
