proyectos/01_spi_one_ch/verilog_codes/spi_one_ch_tb.vcd
$date
	Wed Aug 09 12:29:55 2023
$end
$version
	Icarus Verilog
$end
$timescale
	100ps
$end
$scope module spi_one_ch_tb $end
$var wire 1 ! mosi $end
$var wire 1 " eoc $end
$var wire 12 # dout [11:0] $end
$var wire 1 $ dclk $end
$var wire 1 % cs $end
$var reg 1 & button $end
$var reg 1 ' clk $end
$var reg 1 ( miso $end
$var reg 1 ) rst $end
$scope module dut $end
$var wire 1 & button_i $end
$var wire 1 ' clk_i $end
$var wire 1 ( miso_i $end
$var wire 1 ) rst_i $end
$var wire 1 * start $end
$var wire 1 ! mosi_o $end
$var wire 1 " eoc_o $end
$var wire 12 + dout_o [11:0] $end
$var wire 1 $ dclk_o $end
$var wire 1 % cs_o $end
$var parameter 8 , cmd_i $end
$var parameter 29 - k_i $end
$var parameter 8 . kmax_i $end
$scope module mod_spi $end
$var wire 1 ' clk_i $end
$var wire 8 / cmd_i [7:0] $end
$var wire 1 " eoc_o $end
$var wire 8 0 kmax_i [7:0] $end
$var wire 1 ( miso_i $end
$var wire 1 ) rst_i $end
$var wire 1 * strc_i $end
$var wire 1 1 slow_clk $end
$var wire 1 ! mosi_o $end
$var wire 1 2 eow $end
$var wire 1 3 eor $end
$var wire 12 4 dout_o [11:0] $end
$var wire 1 $ dclk_o $end
$var wire 1 % cs_o $end
$scope module mod_spir $end
$var wire 1 ' clk_i $end
$var wire 1 ( miso_i $end
$var wire 1 ) rst_i $end
$var wire 1 * strr_i $end
$var wire 1 1 slow_clk_i $end
$var wire 2 5 opc2 [1:0] $end
$var wire 2 6 opc1 [1:0] $end
$var wire 1 7 hab $end
$var wire 1 3 eor_o $end
$var wire 12 8 dout_o [11:0] $end
$var wire 16 9 data [15:0] $end
$var wire 6 : cnt [5:0] $end
$scope module mod_cnt_r $end
$var wire 1 ' clk_i $end
$var wire 6 ; cnt_o [5:0] $end
$var wire 1 ) rst_i $end
$var wire 2 < opc_i [1:0] $end
$var parameter 32 = Width $end
$var reg 6 > mux_d [5:0] $end
$var reg 6 ? reg_q [5:0] $end
$upscope $end
$scope module mod_fsm $end
$var wire 1 ' clk_i $end
$var wire 6 @ cnt_i [5:0] $end
$var wire 1 ) rst_i $end
$var wire 1 * strr_i $end
$var wire 1 1 slow_clk_i $end
$var parameter 4 A s0 $end
$var parameter 4 B s1 $end
$var parameter 4 C s2 $end
$var parameter 4 D s3 $end
$var parameter 4 E s4 $end
$var parameter 4 F s5 $end
$var parameter 4 G s6 $end
$var parameter 4 H s7 $end
$var reg 1 3 eor_o $end
$var reg 1 7 hab_o $end
$var reg 4 I next_state [3:0] $end
$var reg 2 J opc1_o [1:0] $end
$var reg 2 K opc2_o [1:0] $end
$var reg 4 L present_state [3:0] $end
$upscope $end
$scope module mod_pipo $end
$var wire 1 ' clk_i $end
$var wire 12 M din_i [11:0] $end
$var wire 1 7 hab_i $end
$var wire 1 ) rst_i $end
$var parameter 32 N Width $end
$var reg 12 O dout_o [11:0] $end
$upscope $end
$scope module mod_sipo $end
$var wire 1 ' clk_i $end
$var wire 1 ( din_i $end
$var wire 2 P op_i [1:0] $end
$var wire 1 ) rst_i $end
$var wire 16 Q dout_o [15:0] $end
$var parameter 32 R Width $end
$var reg 16 S mux_d [15:0] $end
$var reg 16 T reg_q [15:0] $end
$upscope $end
$upscope $end
$scope module mod_spiw $end
$var wire 1 ' clk_i $end
$var wire 8 U cmd_i [7:0] $end
$var wire 8 V kmax_i [7:0] $end
$var wire 1 ) rst_i $end
$var wire 1 1 slow_clk_o $end
$var wire 1 * strw_i $end
$var wire 1 W slow_clk $end
$var wire 2 X opc2 [1:0] $end
$var wire 2 Y opc1 [1:0] $end
$var wire 1 ! mosi_o $end
$var wire 1 Z hab $end
$var wire 1 [ flag $end
$var wire 1 2 eow_o $end
$var wire 1 $ dclk_o $end
$var wire 1 % cs_o $end
$scope module mod_clkdiv $end
$var wire 1 ' clk_i $end
$var wire 8 \ kmax_i [7:0] $end
$var wire 1 ) rst_i $end
$var wire 1 W slow_clk_o $end
$var wire 8 ] mux2_d [7:0] $end
$var wire 8 ^ mux1 [7:0] $end
$var wire 1 Z h_i $end
$var wire 1 _ comp $end
$var parameter 32 ` Width $end
$var reg 8 a reg_q [7:0] $end
$upscope $end
$scope module mod_cnt_w $end
$var wire 1 ' clk_i $end
$var wire 1 ) rst_i $end
$var wire 2 b opc_i [1:0] $end
$var wire 1 [ flag_o $end
$var parameter 32 c Width $end
$var reg 5 d mux_d [4:0] $end
$var reg 5 e reg_q [4:0] $end
$upscope $end
$scope module mod_fsm_w $end
$var wire 1 ' clk_i $end
$var wire 1 [ flag_i $end
$var wire 1 ) rst_i $end
$var wire 1 W slow_clk_i $end
$var wire 1 * strw_i $end
$var parameter 3 f s0 $end
$var parameter 3 g s1 $end
$var parameter 3 h s2 $end
$var parameter 3 i s3 $end
$var parameter 3 j s4 $end
$var parameter 3 k s5 $end
$var parameter 3 l s6 $end
$var reg 1 % cs_o $end
$var reg 1 $ dclk_o $end
$var reg 1 2 eow_o $end
$var reg 1 Z hab_o $end
$var reg 3 m next_state [2:0] $end
$var reg 2 n opc1_o [1:0] $end
$var reg 2 o opc2_o [1:0] $end
$var reg 3 p present_state [2:0] $end
$upscope $end
$scope module mod_piso $end
$var wire 1 ' clk_i $end
$var wire 8 q din_i [7:0] $end
$var wire 2 r op_i [1:0] $end
$var wire 1 ) rst_i $end
$var wire 1 ! dout_o $end
$var parameter 32 s Width $end
$var reg 8 t mux_d [7:0] $end
$var reg 8 u reg_q [7:0] $end
$upscope $end
$upscope $end
$upscope $end
$scope module mod_tick $end
$var wire 1 & button_i $end
$var wire 1 ' clk_i $end
$var wire 29 v k_i [28:0] $end
$var wire 1 ) rst_i $end
$var wire 1 w z $end
$var wire 1 * start_o $end
$var wire 1 x en $end
$var parameter 32 y Width $end
$scope module mod_fsm_tick $end
$var wire 1 & button_i $end
$var wire 1 ' clk_i $end
$var wire 1 ) rst_i $end
$var wire 1 w z_i $end
$var parameter 2 z s0 $end
$var parameter 2 { s1 $end
$var parameter 2 | s2 $end
$var reg 1 x en_o $end
$var reg 2 } next_state [1:0] $end
$var reg 2 ~ present_state [1:0] $end
$var reg 1 * start_o $end
$upscope $end
$scope module mod_timer $end
$var wire 1 ' clk_i $end
$var wire 1 x en_i $end
$var wire 29 !" k_i [28:0] $end
$var wire 1 ) rst_i $end
$var wire 1 w z_o $end
$var wire 29 "" mux2_d [28:0] $end
$var wire 29 #" mux1 [28:0] $end
$var wire 1 $" comp $end
$var parameter 32 %" Width $end
$var reg 29 &" reg_q [28:0] $end
$upscope $end
$upscope $end
$upscope $end
$upscope $end
$enddefinitions $end
$comment Show the parameter values. $end
$dumpall
b11101 %"
b10 |
b1 {
b0 z
b11101 y
b1000 s
b110 l
b101 k
b100 j
b11 i
b10 h
b1 g
b0 f
b101 c
b1000 `
b10000 R
b1100 N
b111 H
b110 G
b101 F
b100 E
b11 D
b10 C
b1 B
b0 A
b110 =
b100111 .
b11101110011010110010011111111 -
b10010111 ,
$end
#0
$dumpvars
b0 &"
1$"
b0 #"
b11101110011010110010011111111 ""
b11101110011010110010011111111 !"
b0 ~
b0 }
0x
1w
b11101110011010110010011111111 v
b0 u
b0 t
b11 r
b10010111 q
b0 p
b11 o
b11 n
b0 m
b0 e
b0 d
b11 b
b0 a
1_
b0 ^
b100111 ]
b100111 \
0[
0Z
b11 Y
b11 X
1W
b100111 V
b10010111 U
b0 T
b0 S
b0 Q
b0 P
b0 O
b0 M
b0 L
b0 K
b0 J
b0 I
b0 @
b0 ?
b0 >
b0 <
b0 ;
b0 :
b0 9
b0 8
07
b0 6
b0 5
b0 4
13
12
11
b100111 0
b10010111 /
b0 +
0*
1)
1(
0'
0&
1%
0$
b0 #
1"
0!
$end
#50
1'
#100
0'
0)
#150
b11101110011010110010011111111 #"
0w
0$"
b100111 ^
01
0W
0_
b11101110011010110010011111111 &"
b100111 a
1'
#200
0'
#250
1'
#300
b1 }
0'
1&
#350
b1 I
b1 m
b10 }
1*
b1 ~
1'
#400
b1 I
b1 m
b10 }
1*
0'
0&
#450
b11101110011010110010011111110 ""
0"
b11101110011010110010011111110 #"
b10 I
03
b1 5
b1 K
b1 P
b1 6
b1 <
b1 J
b10 m
02
0%
b1 X
b1 b
b1 o
b0 Y
b0 n
b0 r
1x
0*
b1 L
b1 p
b10 ~
1'
#500
0'
#550
b100110 ]
b11101110011010110010011111101 ""
b100110 ^
b10010111 t
b11101110011010110010011111101 #"
1Z
02
0%
b1 X
b1 b
b1 o
b1 Y
b1 n
b1 r
03
b1 5
b1 K
b1 P
b1 6
b1 <
b1 J
b11101110011010110010011111110 &"
b10 p
b10 L
1'
#600
0'
#650
b100101 ]
b11101110011010110010011111100 ""
b100101 ^
1!
b11101110011010110010011111100 #"
b100110 a
b10010111 u
b11101110011010110010011111101 &"
1'
#700
0'
#750
b11101110011010110010011111011 ""
b100100 ]
b11101110011010110010011111011 #"
b100100 ^
b11101110011010110010011111100 &"
b100101 a
1'
#800
0'
#850
b100011 ]
b11101110011010110010011111010 ""
b100011 ^
b11101110011010110010011111010 #"
b100100 a
b11101110011010110010011111011 &"
1'
#900
0'
#950
b11101110011010110010011111001 ""
b100010 ]
b11101110011010110010011111001 #"
b100010 ^
b11101110011010110010011111010 &"
b100011 a
1'
#1000
0'
#1050
b100001 ]
b11101110011010110010011111000 ""
b100001 ^
b11101110011010110010011111000 #"
b100010 a
b11101110011010110010011111001 &"
1'
#1100
0'
#1150
b11101110011010110010011110111 ""
b100000 ]
b11101110011010110010011110111 #"
b100000 ^
b11101110011010110010011111000 &"
b100001 a
1'
#1200
0'
#1250
b11111 ]
b11101110011010110010011110110 ""
b11111 ^
b11101110011010110010011110110 #"
b100000 a
b11101110011010110010011110111 &"
1'
#1300
0'
#1350
b11101110011010110010011110101 ""
b11110 ]
b11101110011010110010011110101 #"
b11110 ^
b11101110011010110010011110110 &"
b11111 a
1'
#1400
0'
#1450
b11101 ]
b11101110011010110010011110100 ""
b11101 ^
b11101110011010110010011110100 #"
b11110 a
b11101110011010110010011110101 &"
1'
#1500
0'
#1550
b11101110011010110010011110011 ""
b11100 ]
b11101110011010110010011110011 #"
b11100 ^
b11101110011010110010011110100 &"
b11101 a
1'
#1600
0'
#1650
b11011 ]
b11101110011010110010011110010 ""
b11011 ^
b11101110011010110010011110010 #"
b11100 a
b11101110011010110010011110011 &"
1'
#1700
0'
#1750
b11101110011010110010011110001 ""
b11010 ]
b11101110011010110010011110001 #"
b11010 ^
b11101110011010110010011110010 &"
b11011 a
1'
#1800
0'
#1850
b11001 ]
b11101110011010110010011110000 ""
b11001 ^
b11101110011010110010011110000 #"
b11010 a
b11101110011010110010011110001 &"
1'
#1900
0'
#1950
b11101110011010110010011101111 ""
b11000 ]
b11101110011010110010011101111 #"
b11000 ^
b11101110011010110010011110000 &"
b11001 a
1'
#2000
0'
#2050
b10111 ]
b11101110011010110010011101110 ""
b10111 ^
b11101110011010110010011101110 #"
b11000 a
b11101110011010110010011101111 &"
1'
#2100
0'
#2150
b11101110011010110010011101101 ""
b10110 ]
b11101110011010110010011101101 #"
b10110 ^
b11101110011010110010011101110 &"
b10111 a
1'
#2200
0'
#2250
b10101 ]
b11101110011010110010011101100 ""
b10101 ^
b11101110011010110010011101100 #"
b10110 a
b11101110011010110010011101101 &"
1'
#2300
0'
#2350
b11101110011010110010011101011 ""
b10100 ]
b11101110011010110010011101011 #"
b10100 ^
b11101110011010110010011101100 &"
b10101 a
1'
#2400
0'
#2450
b10011 ]
b11101110011010110010011101010 ""
b10011 ^
b11101110011010110010011101010 #"
b10100 a
b11101110011010110010011101011 &"
1'
#2500
0'
#2550
b11101110011010110010011101001 ""
b10010 ]
b11101110011010110010011101001 #"
b10010 ^
b11101110011010110010011101010 &"
b10011 a
1'
#2600
0'
#2650
b10001 ]
b11101110011010110010011101000 ""
b10001 ^
b11101110011010110010011101000 #"
b10010 a
b11101110011010110010011101001 &"
1'
#2700
0'
#2750
b11101110011010110010011100111 ""
b10000 ]
b11101110011010110010011100111 #"
b10000 ^
b11101110011010110010011101000 &"
b10001 a
1'
#2800
0'
#2850
b1111 ]
b11101110011010110010011100110 ""
b1111 ^
b11101110011010110010011100110 #"
b10000 a
b11101110011010110010011100111 &"
1'
#2900
0'
#2950
b11101110011010110010011100101 ""
b1110 ]
b11101110011010110010011100101 #"
b1110 ^
b11101110011010110010011100110 &"
b1111 a
1'
#3000
0'
#3050
b1101 ]
b11101110011010110010011100100 ""
b1101 ^
b11101110011010110010011100100 #"
b1110 a
b11101110011010110010011100101 &"
1'
#3100
0'
#3150
b11101110011010110010011100011 ""
b1100 ]
b11101110011010110010011100011 #"
b1100 ^
b11101110011010110010011100100 &"
b1101 a
1'
#3200
0'
#3250
b1011 ]
b11101110011010110010011100010 ""
b1011 ^
b11101110011010110010011100010 #"
b1100 a
b11101110011010110010011100011 &"
1'
#3300
0'
#3350
b11101110011010110010011100001 ""
b1010 ]
b11101110011010110010011100001 #"
b1010 ^
b11101110011010110010011100010 &"
b1011 a
1'
#3400
0'
#3450
b1001 ]
b11101110011010110010011100000 ""
b1001 ^
b11101110011010110010011100000 #"
b1010 a
b11101110011010110010011100001 &"
1'
#3500
0'
#3550
b11101110011010110010011011111 ""
b1000 ]
b11101110011010110010011011111 #"
b1000 ^
b11101110011010110010011100000 &"
b1001 a
1'
#3600
0'
#3650
b111 ]
b11101110011010110010011011110 ""
b111 ^
b11101110011010110010011011110 #"
b1000 a
b11101110011010110010011011111 &"
1'
#3700
0'
#3750
b11101110011010110010011011101 ""
b110 ]
b11101110011010110010011011101 #"
b110 ^
b11101110011010110010011011110 &"
b111 a
1'
#3800
0'
#3850
b101 ]
b11101110011010110010011011100 ""
b101 ^
b11101110011010110010011011100 #"
b110 a
b11101110011010110010011011101 &"
1'
#3900
0'
#3950
b11101110011010110010011011011 ""
b100 ]
b11101110011010110010011011011 #"
b100 ^
b11101110011010110010011011100 &"
b101 a
1'
#4000
0'
#4050
b11 ]
b11101110011010110010011011010 ""
b11 ^
b11101110011010110010011011010 #"
b100 a
b11101110011010110010011011011 &"
1'
#4100
0'
#4150
b11101110011010110010011011001 ""
b10 ]
b11101110011010110010011011001 #"
b10 ^
b11101110011010110010011011010 &"
b11 a
1'
#4200
0'
#4250
b1 ]
b11101110011010110010011011000 ""
b1 ^
b11101110011010110010011011000 #"
b10 a
b11101110011010110010011011001 &"
1'
#4300
0'
#4350
b11101110011010110010011010111 ""
b0 ]
b11101110011010110010011010111 #"
b0 ^
b11101110011010110010011011000 &"
b1 a
1'
#4400
0'
#4450
b100111 ]
b11 m
02
1Z
0%
b1 X
b1 b
b1 o
b1 Y
b1 n
b1 r
b11 I
03
b1 5
b1 K
b1 P
b1 6
b1 <
b1 J
b11101110011010110010011010110 ""
b11111111 ^
11
1W
1_
b11101110011010110010011010110 #"
b0 a
b11101110011010110010011010111 &"
1'
#4500
0'
#4550
b11101110011010110010011010101 ""
b100110 ]
b1 >
b11101110011010110010011010101 #"
b100110 ^
01
0W
0_
b11 m
1$
02
1Z
0%
b1 X
b1 b
b1 o
b0 Y
b0 n
b0 r
b100 I
03
b1 5
b1 K
b1 P
b10 6
b10 <
b10 J
b11101110011010110010011010110 &"
b100111 a
b11 p
b11 L
1'
#4600
0'
#4650
b100101 ]
b11101110011010110010011010100 ""
03
b1 5
b1 K
b1 P
b1 6
b1 <
b1 J
b100101 ^
b11101110011010110010011010100 #"
b100 L
b1 :
b1 ;
b1 @
b1 ?
b100110 a
b11101110011010110010011010101 &"
1'
#4700
0'
#4750
b11101110011010110010011010011 ""
b100100 ]
b11101110011010110010011010011 #"
b100100 ^
b11101110011010110010011010100 &"
b100101 a
1'
#4800
0'
#4850
b100011 ]
b11101110011010110010011010010 ""
b100011 ^
b11101110011010110010011010010 #"
b100100 a
b11101110011010110010011010011 &"
1'
#4900
0'
#4950
b11101110011010110010011010001 ""
b100010 ]
b11101110011010110010011010001 #"
b100010 ^
b11101110011010110010011010010 &"
b100011 a
1'
#5000
0'
#5050
b100001 ]
b11101110011010110010011010000 ""
b100001 ^
b11101110011010110010011010000 #"
b100010 a
b11101110011010110010011010001 &"
1'
#5100
0'
#5150
b11101110011010110010011001111 ""
b100000 ]
b11101110011010110010011001111 #"
b100000 ^
b11101110011010110010011010000 &"
b100001 a
1'
#5200
0'
#5250
b11111 ]
b11101110011010110010011001110 ""
b11111 ^
b11101110011010110010011001110 #"
b100000 a
b11101110011010110010011001111 &"
1'
#5300
0'
#5350
b11101110011010110010011001101 ""
b11110 ]
b11101110011010110010011001101 #"
b11110 ^
b11101110011010110010011001110 &"
b11111 a
1'
#5400
0'
#5450
b11101 ]
b11101110011010110010011001100 ""
b11101 ^
b11101110011010110010011001100 #"
b11110 a
b11101110011010110010011001101 &"
1'
#5500
0'
#5550
b11101110011010110010011001011 ""
b11100 ]
b11101110011010110010011001011 #"
b11100 ^
b11101110011010110010011001100 &"
b11101 a
1'
#5600
0'
#5650
b11011 ]
b11101110011010110010011001010 ""
b11011 ^
b11101110011010110010011001010 #"
b11100 a
b11101110011010110010011001011 &"
1'
#5700
0'
#5750
b11101110011010110010011001001 ""
b11010 ]
b11101110011010110010011001001 #"
b11010 ^
b11101110011010110010011001010 &"
b11011 a
1'
#5800
0'
#5850
b11001 ]
b11101110011010110010011001000 ""
b11001 ^
b11101110011010110010011001000 #"
b11010 a
b11101110011010110010011001001 &"
1'
#5900
0'
#5950
b11101110011010110010011000111 ""
b11000 ]
b11101110011010110010011000111 #"
b11000 ^
b11101110011010110010011001000 &"
b11001 a
1'
#6000
0'
#6050
b10111 ]
b11101110011010110010011000110 ""
b10111 ^
b11101110011010110010011000110 #"
b11000 a
b11101110011010110010011000111 &"
1'
#6100
0'
#6150
b11101110011010110010011000101 ""
b10110 ]
b11101110011010110010011000101 #"
b10110 ^
b11101110011010110010011000110 &"
b10111 a
1'
#6200
0'
#6250
b10101 ]
b11101110011010110010011000100 ""
b10101 ^
b11101110011010110010011000100 #"
b10110 a
b11101110011010110010011000101 &"
1'
#6300
0'
#6350
b11101110011010110010011000011 ""
b10100 ]
b11101110011010110010011000011 #"
b10100 ^
b11101110011010110010011000100 &"
b10101 a
1'
#6400
0'
#6450
b10011 ]
b11101110011010110010011000010 ""
b10011 ^
b11101110011010110010011000010 #"
b10100 a
b11101110011010110010011000011 &"
1'
#6500
0'
#6550
b11101110011010110010011000001 ""
b10010 ]
b11101110011010110010011000001 #"
b10010 ^
b11101110011010110010011000010 &"
b10011 a
1'
#6600
0'
#6650
b10001 ]
b11101110011010110010011000000 ""
b10001 ^
b11101110011010110010011000000 #"
b10010 a
b11101110011010110010011000001 &"
1'
#6700
0'
#6750
b11101110011010110010010111111 ""
b10000 ]
b11101110011010110010010111111 #"
b10000 ^
b11101110011010110010011000000 &"
b10001 a
1'
#6800
0'
#6850
b1111 ]
b11101110011010110010010111110 ""
b1111 ^
b11101110011010110010010111110 #"
b10000 a
b11101110011010110010010111111 &"
1'
#6900
0'
#6950
b11101110011010110010010111101 ""
b1110 ]
b11101110011010110010010111101 #"
b1110 ^
b11101110011010110010010111110 &"
b1111 a
1'
#7000
0'
#7050
b1101 ]
b11101110011010110010010111100 ""
b1101 ^
b11101110011010110010010111100 #"
b1110 a
b11101110011010110010010111101 &"
1'
#7100
0'
#7150
b11101110011010110010010111011 ""
b1100 ]
b11101110011010110010010111011 #"
b1100 ^
b11101110011010110010010111100 &"
b1101 a
1'
#7200
0'
#7250
b1011 ]
b11101110011010110010010111010 ""
b1011 ^
b11101110011010110010010111010 #"
b1100 a
b11101110011010110010010111011 &"
1'
#7300
0'
#7350
b11101110011010110010010111001 ""
b1010 ]
b11101110011010110010010111001 #"
b1010 ^
b11101110011010110010010111010 &"
b1011 a
1'
#7400
0'
#7450
b1001 ]
b11101110011010110010010111000 ""
b1001 ^
b11101110011010110010010111000 #"
b1010 a
b11101110011010110010010111001 &"
1'
#7500
0'
#7550
b11101110011010110010010110111 ""
b1000 ]
b11101110011010110010010110111 #"
b1000 ^
b11101110011010110010010111000 &"
b1001 a
1'
#7600
0'
#7650
b111 ]
b11101110011010110010010110110 ""
b111 ^
b11101110011010110010010110110 #"
b1000 a
b11101110011010110010010110111 &"
1'
#7700
0'
#7750
b11101110011010110010010110101 ""
b110 ]
b11101110011010110010010110101 #"
b110 ^
b11101110011010110010010110110 &"
b111 a
1'
#7800
0'
#7850
b101 ]
b11101110011010110010010110100 ""
b101 ^
b11101110011010110010010110100 #"
b110 a
b11101110011010110010010110101 &"
1'
#7900
0'
#7950
b11101110011010110010010110011 ""
b100 ]
b11101110011010110010010110011 #"
b100 ^
b11101110011010110010010110100 &"
b101 a
1'
#8000
0'
#8050
b11 ]
b11101110011010110010010110010 ""
b11 ^
b11101110011010110010010110010 #"
b100 a
b11101110011010110010010110011 &"
1'
#8100
0'
#8150
b11101110011010110010010110001 ""
b10 ]
b11101110011010110010010110001 #"
b10 ^
b11101110011010110010010110010 &"
b11 a
1'
#8200
0'
#8250
b1 ]
b11101110011010110010010110000 ""
b1 ^
b11101110011010110010010110000 #"
b10 a
b11101110011010110010010110001 &"
1'
#8300
0'
#8350
b11101110011010110010010101111 ""
b0 ]
b11101110011010110010010101111 #"
b0 ^
b11101110011010110010010110000 &"
b1 a
1'
#8400
0'
#8450
b100111 ]
b100 m
02
1Z
1$
0%
b1 X
b1 b
b1 o
b0 Y
b0 n
b0 r
b11 I
03
b1 5
b1 K
b1 P
b1 6
b1 <
b1 J
b11101110011010110010010101110 ""
b11111111 ^
11
1W
1_
b11101110011010110010010101110 #"
b0 a
b11101110011010110010010101111 &"
1'
#8500
0'
#8550
b11101110011010110010010101101 ""
b100110 ]
b1 d
b101110 t
b10 >
b11101110011010110010010101101 #"
b100110 ^
01
0W
0_
b101 m
02
1Z
0$
0%
b10 X
b10 b
b10 o
b10 Y
b10 n
b10 r
b100 I
03
b1 5
b1 K
b1 P
b10 6
b10 <
b10 J
b11101110011010110010010101110 &"
b100111 a
b100 p
b11 L
1'
#8600
0'
#8650
b100101 ]
b11101110011010110010010101100 ""
03
b1 5
b1 K
b1 P
b1 6
b1 <
b1 J
02
1Z
0%
b1 X
b1 b
b1 o
b0 Y
b0 n
b0 r
b100101 ^
b1 d
b101110 t
0!
b11101110011010110010010101100 #"
b100 L
b10 :
b10 ;
b10 @
b10 ?
b101 p
b100110 a
b1 e
b101110 u
b11101110011010110010010101101 &"
1'
#8700
0'
#8750
b11101110011010110010010101011 ""
b100100 ]
b11101110011010110010010101011 #"
b100100 ^
b11101110011010110010010101100 &"
b100101 a
1'
#8800
0'
#8850
b100011 ]
b11101110011010110010010101010 ""
b100011 ^
b11101110011010110010010101010 #"
b100100 a
b11101110011010110010010101011 &"
1'
#8900
0'
#8950
b11101110011010110010010101001 ""
b100010 ]
b11101110011010110010010101001 #"
b100010 ^
b11101110011010110010010101010 &"
b100011 a
1'
#9000
0'
#9050
b100001 ]
b11101110011010110010010101000 ""
b100001 ^
b11101110011010110010010101000 #"
b100010 a
b11101110011010110010010101001 &"
1'
#9100
0'
#9150
b11101110011010110010010100111 ""
b100000 ]
b11101110011010110010010100111 #"
b100000 ^
b11101110011010110010010101000 &"
b100001 a
1'
#9200
0'
#9250
b11111 ]
b11101110011010110010010100110 ""
b11111 ^
b11101110011010110010010100110 #"
b100000 a
b11101110011010110010010100111 &"
1'
#9300
0'
#9350
b11101110011010110010010100101 ""
b11110 ]
b11101110011010110010010100101 #"
b11110 ^
b11101110011010110010010100110 &"
b11111 a
1'
#9400
0'
#9450
b11101 ]
b11101110011010110010010100100 ""
b11101 ^
b11101110011010110010010100100 #"
b11110 a
b11101110011010110010010100101 &"
1'
#9500
0'
#9550
b11101110011010110010010100011 ""
b11100 ]
b11101110011010110010010100011 #"
b11100 ^
b11101110011010110010010100100 &"
b11101 a
1'
#9600
0'
#9650
b11011 ]
b11101110011010110010010100010 ""
b11011 ^
b11101110011010110010010100010 #"
b11100 a
b11101110011010110010010100011 &"
1'
#9700
0'
#9750
b11101110011010110010010100001 ""
b11010 ]
b11101110011010110010010100001 #"
b11010 ^
b11101110011010110010010100010 &"
b11011 a
1'
#9800
0'
#9850
b11001 ]
b11101110011010110010010100000 ""
b11001 ^
b11101110011010110010010100000 #"
b11010 a
b11101110011010110010010100001 &"
1'
#9900
0'
#9950
b11101110011010110010010011111 ""
b11000 ]
b11101110011010110010010011111 #"
b11000 ^
b11101110011010110010010100000 &"
b11001 a
1'
#10000
0'
#10050
b10111 ]
b11101110011010110010010011110 ""
b10111 ^
b11101110011010110010010011110 #"
b11000 a
b11101110011010110010010011111 &"
1'
#10100
0'
#10150
b11101110011010110010010011101 ""
b10110 ]
b11101110011010110010010011101 #"
b10110 ^
b11101110011010110010010011110 &"
b10111 a
1'
#10200
0'
#10250
b10101 ]
b11101110011010110010010011100 ""
b10101 ^
b11101110011010110010010011100 #"
b10110 a
b11101110011010110010010011101 &"
1'
#10300
0'
#10350
b11101110011010110010010011011 ""
b10100 ]
b11101110011010110010010011011 #"
b10100 ^
b11101110011010110010010011100 &"
b10101 a
1'
#10400
0'
#10450
b10011 ]
b11101110011010110010010011010 ""
b10011 ^
b11101110011010110010010011010 #"
b10100 a
b11101110011010110010010011011 &"
1'
#10500
0'
#10550
b11101110011010110010010011001 ""
b10010 ]
b11101110011010110010010011001 #"
b10010 ^
b11101110011010110010010011010 &"
b10011 a
1'
#10600
0'
#10650
b10001 ]
b11101110011010110010010011000 ""
b10001 ^
b11101110011010110010010011000 #"
b10010 a
b11101110011010110010010011001 &"
1'
#10700
0'
#10750
b11101110011010110010010010111 ""
b10000 ]
b11101110011010110010010010111 #"
b10000 ^
b11101110011010110010010011000 &"
b10001 a
1'
#10800
0'
#10850
b1111 ]
b11101110011010110010010010110 ""
b1111 ^
b11101110011010110010010010110 #"
b10000 a
b11101110011010110010010010111 &"
1'
#10900
0'
#10950
b11101110011010110010010010101 ""
b1110 ]
b11101110011010110010010010101 #"
b1110 ^
b11101110011010110010010010110 &"
b1111 a
1'
#11000
0'
#11050
b1101 ]
b11101110011010110010010010100 ""
b1101 ^
b11101110011010110010010010100 #"
b1110 a
b11101110011010110010010010101 &"
1'
#11100
0'
#11150
b11101110011010110010010010011 ""
b1100 ]
b11101110011010110010010010011 #"
b1100 ^
b11101110011010110010010010100 &"
b1101 a
1'
#11200
0'
#11250
b1011 ]
b11101110011010110010010010010 ""
b1011 ^
b11101110011010110010010010010 #"
b1100 a
b11101110011010110010010010011 &"
1'
#11300
0'
#11350
b11101110011010110010010010001 ""
b1010 ]
b11101110011010110010010010001 #"
b1010 ^
b11101110011010110010010010010 &"
b1011 a
1'
#11400
0'
#11450
b1001 ]
b11101110011010110010010010000 ""
b1001 ^
b11101110011010110010010010000 #"
b1010 a
b11101110011010110010010010001 &"
1'
#11500
0'
#11550
b11101110011010110010010001111 ""
b1000 ]
b11101110011010110010010001111 #"
b1000 ^
b11101110011010110010010010000 &"
b1001 a
1'
#11600
0'
#11650
b111 ]
b11101110011010110010010001110 ""
b111 ^
b11101110011010110010010001110 #"
b1000 a
b11101110011010110010010001111 &"
1'
#11700
0'
#11750
b11101110011010110010010001101 ""
b110 ]
b11101110011010110010010001101 #"
b110 ^
b11101110011010110010010001110 &"
b111 a
1'
#11800
0'
#11850
b101 ]
b11101110011010110010010001100 ""
b101 ^
b11101110011010110010010001100 #"
b110 a
b11101110011010110010010001101 &"
1'
#11900
0'
#11950
b11101110011010110010010001011 ""
b100 ]
b11101110011010110010010001011 #"
b100 ^
b11101110011010110010010001100 &"
b101 a
1'
#12000
0'
#12050
b11 ]
b11101110011010110010010001010 ""
b11 ^
b11101110011010110010010001010 #"
b100 a
b11101110011010110010010001011 &"
1'
#12100
0'
#12150
b11101110011010110010010001001 ""
b10 ]
b11101110011010110010010001001 #"
b10 ^
b11101110011010110010010001010 &"
b11 a
1'
#12200
0'
#12250
b1 ]
b11101110011010110010010001000 ""
b1 ^
b11101110011010110010010001000 #"
b10 a
b11101110011010110010010001001 &"
1'
#12300
0'
#12350
b11101110011010110010010000111 ""
b0 ]
b11101110011010110010010000111 #"
b0 ^
b11101110011010110010010001000 &"
b1 a
1'
#12400
0'
#12450
b100111 ]
b11 m
02
1Z
0%
b1 X
b1 b
b1 o
b0 Y
b0 n
b0 r
b11 I
03
b1 5
b1 K
b1 P
b1 6
b1 <
b1 J
b11101110011010110010010000110 ""
b11111111 ^
11
1W
1_
b11101110011010110010010000110 #"
b0 a
b11101110011010110010010000111 &"
1'
#12500
0'
#12550
b11101110011010110010010000101 ""
b100110 ]
b11 >
b11101110011010110010010000101 #"
b100110 ^
01
0W
0_
b11 m
1$
02
1Z
0%
b1 X
b1 b
b1 o
b0 Y
b0 n
b0 r
b100 I
03
b1 5
b1 K
b1 P
b10 6
b10 <
b10 J
b11101110011010110010010000110 &"
b100111 a
b11 p
b11 L
1'
#12600
0'
#12650
b100101 ]
b11101110011010110010010000100 ""
03
b1 5
b1 K
b1 P
b1 6
b1 <
b1 J
b100101 ^
b11101110011010110010010000100 #"
b100 L
b11 :
b11 ;
b11 @
b11 ?
b100110 a
b11101110011010110010010000101 &"
1'
#12700
0'
#12750
b11101110011010110010010000011 ""
b100100 ]
b11101110011010110010010000011 #"
b100100 ^
b11101110011010110010010000100 &"
b100101 a
1'
#12800
0'
#12850
b100011 ]
b11101110011010110010010000010 ""
b100011 ^
b11101110011010110010010000010 #"
b100100 a
b11101110011010110010010000011 &"
1'
#12900
0'
